********************************************************************************
MEME - Motif discovery tool
********************************************************************************
MEME version 4.10.0 (Release date: Wed May 21 10:35:36 2014 +1000)

For further information on how to interpret these results or to get
a copy of the MEME software please access http://meme.nbcr.net.

This file may be used as input to the MAST algorithm for searching
sequence databases for matches to groups of motifs.  MAST is available
for interactive use and downloading at http://meme.nbcr.net.
********************************************************************************


********************************************************************************
REFERENCE
********************************************************************************
If you use this program in your research, please cite:

Timothy L. Bailey and Charles Elkan,
"Fitting a mixture model by expectation maximization to discover
motifs in biopolymers", Proceedings of the Second International
Conference on Intelligent Systems for Molecular Biology, pp. 28-36,
AAAI Press, Menlo Park, California, 1994.
********************************************************************************


********************************************************************************
TRAINING SET
********************************************************************************
DATAFILE= intermediateFiles/DEgenesPromotersRSdown.fasta
ALPHABET= ACGT
Sequence name            Weight Length  Sequence name            Weight Length  
-------------            ------ ------  -------------            ------ ------  
LOC_Os01g05810           1.0000    500  LOC_Os01g07770           1.0000    500  
LOC_Os01g11570           1.0000    500  LOC_Os01g11620           1.0000    500  
LOC_Os01g12130           1.0000    500  LOC_Os01g12490           1.0000    500  
LOC_Os01g20160           1.0000    500  LOC_Os01g24430           1.0000    500  
LOC_Os01g25710           1.0000    500  LOC_Os01g25720           1.0000    500  
LOC_Os01g36580           1.0000    500  LOC_Os01g37470           1.0000    500  
LOC_Os01g37910           1.0000    500  LOC_Os01g39110           1.0000    500  
LOC_Os01g39770           1.0000    500  LOC_Os01g42690           1.0000    500  
LOC_Os01g45830           1.0000    500  LOC_Os01g46810           1.0000    500  
LOC_Os01g50610           1.0000    500  LOC_Os01g50622           1.0000    500  
LOC_Os01g53800           1.0000    500  LOC_Os01g54890           1.0000    500  
LOC_Os01g55150           1.0000    500  LOC_Os01g58910           1.0000    500  
LOC_Os01g63460           1.0000    500  LOC_Os01g65080           1.0000    500  
LOC_Os01g65130           1.0000    500  LOC_Os01g65169           1.0000    500  
LOC_Os01g67360           1.0000    500  LOC_Os01g69920           1.0000    500  
LOC_Os01g74450           1.0000    500  LOC_Os02g03570           1.0000    500  
LOC_Os02g03840           1.0000    500  LOC_Os02g20360           1.0000    500  
LOC_Os02g32469           1.0000    500  LOC_Os02g46460           1.0000    500  
LOC_Os02g49720           1.0000    500  LOC_Os02g51280           1.0000    500  
LOC_Os03g01880           1.0000    500  LOC_Os03g03610           1.0000    500  
LOC_Os03g04660           1.0000    500  LOC_Os03g05910           1.0000    500  
LOC_Os03g11734           1.0000    500  LOC_Os03g18790           1.0000    500  
LOC_Os03g20870           1.0000    500  LOC_Os03g22620           1.0000    500  
LOC_Os03g28300           1.0000    500  LOC_Os03g41330           1.0000    500  
LOC_Os03g42600           1.0000    500  LOC_Os03g46570           1.0000    500  
LOC_Os03g51030           1.0000    500  LOC_Os03g60430           1.0000    500  
LOC_Os03g63760           1.0000    500  LOC_Os04g01960           1.0000    500  
LOC_Os04g09604           1.0000    500  LOC_Os04g16450           1.0000    500  
LOC_Os04g20164           1.0000    500  LOC_Os04g27190           1.0000    500  
LOC_Os04g35790           1.0000    500  LOC_Os04g41570           1.0000    500  
LOC_Os04g42620           1.0000    500  LOC_Os04g51880           1.0000    500  
LOC_Os04g51980           1.0000    500  LOC_Os04g52390           1.0000    500  
LOC_Os04g54474           1.0000    500  LOC_Os04g58160           1.0000    500  
LOC_Os04g58390           1.0000    500  LOC_Os04g58710           1.0000    500  
LOC_Os05g02420           1.0000    500  LOC_Os05g07740           1.0000    500  
LOC_Os05g07940           1.0000    500  LOC_Os05g12320           1.0000    500  
LOC_Os05g14240           1.0000    500  LOC_Os05g24140           1.0000    500  
LOC_Os05g31570           1.0000    500  LOC_Os05g36010           1.0000    500  
LOC_Os05g37950           1.0000    500  LOC_Os05g40010           1.0000    500  
LOC_Os05g47700           1.0000    500  LOC_Os05g47790           1.0000    500  
LOC_Os05g51610           1.0000    500  LOC_Os05g51690           1.0000    500  
LOC_Os06g09350           1.0000    500  LOC_Os06g16330           1.0000    500  
LOC_Os06g28124           1.0000    500  LOC_Os06g48180           1.0000    500  
LOC_Os07g05360           1.0000    500  LOC_Os07g15370           1.0000    500  
LOC_Os07g33480           1.0000    500  LOC_Os07g40300           1.0000    500  
LOC_Os07g41280           1.0000    500  LOC_Os07g42160           1.0000    500  
LOC_Os07g45570           1.0000    500  LOC_Os07g46950           1.0000    500  
LOC_Os07g49360           1.0000    500  LOC_Os08g02070           1.0000    500  
LOC_Os08g07490           1.0000    500  LOC_Os08g07970           1.0000    500  
LOC_Os08g14990           1.0000    500  LOC_Os08g15050           1.0000    500  
LOC_Os08g28170           1.0000    500  LOC_Os08g31510           1.0000    500  
LOC_Os08g41720           1.0000    500  LOC_Os08g42530           1.0000    500  
LOC_Os08g44360           1.0000    500  LOC_Os08g44760           1.0000    500  
LOC_Os09g02270           1.0000    500  LOC_Os09g16330           1.0000    500  
LOC_Os09g17329           1.0000    500  LOC_Os09g21740           1.0000    500  
LOC_Os09g23300           1.0000    500  LOC_Os09g25690           1.0000    500  
LOC_Os09g26310           1.0000    500  LOC_Os09g26370           1.0000    500  
LOC_Os09g27220           1.0000    500  LOC_Os09g37710           1.0000    500  
LOC_Os10g14920           1.0000    500  LOC_Os10g22050           1.0000    500  
LOC_Os10g25010           1.0000    500  LOC_Os10g25150           1.0000    500  
LOC_Os10g28680           1.0000    500  LOC_Os10g31850           1.0000    500  
LOC_Os10g37240           1.0000    500  LOC_Os10g39936           1.0000    500  
LOC_Os10g40600           1.0000    500  LOC_Os11g08210           1.0000    500  
LOC_Os11g20020           1.0000    500  LOC_Os11g25160           1.0000    500  
LOC_Os11g26390           1.0000    500  LOC_Os11g31190           1.0000    500  
LOC_Os11g34460           1.0000    500  LOC_Os11g36160           1.0000    500  
LOC_Os11g41600           1.0000    500  LOC_Os11g42800           1.0000    500  
LOC_Os11g47460           1.0000    500  LOC_Os12g16080           1.0000    500  
LOC_Os12g16290           1.0000    500  LOC_Os12g29220           1.0000    500  
LOC_Os12g32360           1.0000    500  LOC_Os12g35350           1.0000    500  
LOC_Os12g38750           1.0000    500  
********************************************************************************

********************************************************************************
COMMAND LINE SUMMARY
********************************************************************************
This information can also be useful in the event you wish to report a
problem with the MEME software.

command: meme intermediateFiles/DEgenesPromotersRSdown.fasta -maxsize 77550 -dna -mod zoops -nmotifs 20 -minw 6 -maxw 10 -minsites 20 -evt 0.05 -oc results/Meme/MEME.DEgenesPromotersRSdown 

model:  mod=         zoops    nmotifs=        20    evt=          0.05
object function=  E-value of product of p-values
width:  minw=            6    maxw=           10    minic=        0.00
width:  wg=             11    ws=              1    endgaps=       yes
nsites: minsites=       20    maxsites=      141    wnsites=       0.8
theta:  prob=            1    spmap=         uni    spfuzz=        0.5
global: substring=     yes    branching=      no    wbranch=        no
em:     prior=   dirichlet    b=            0.01    maxiter=        50
        distance=    1e-05
data:   n=           70500    N=             141
strands: +
sample: seed=            0    seqfrac=         1
Letter frequencies in dataset:
A 0.307 C 0.216 G 0.186 T 0.290 
Background letter frequencies (from dataset with add-one prior applied):
A 0.307 C 0.216 G 0.186 T 0.290 
********************************************************************************


********************************************************************************
MOTIF  1 MEME	width =  10  sites =  94  llr = 771  E-value = 1.3e-015
********************************************************************************
--------------------------------------------------------------------------------
	Motif 1 Description
--------------------------------------------------------------------------------
Simplified        A  97a9aa8a78
pos.-specific     C  ::::::::11
probability       G  12:1::1:21
matrix            T  :1::::1::1

         bits    2.4           
                 2.2           
                 1.9           
                 1.7   *    *  
Relative         1.5   * ** *  
Entropy          1.2 * **** *  
(11.8 bits)      1.0 * **** *  
                 0.7 **********
                 0.5 **********
                 0.2 **********
                 0.0 ----------

Multilevel           AAAAAAAAAA
consensus             G      G 
sequence                       
                               
--------------------------------------------------------------------------------

--------------------------------------------------------------------------------
	Motif 1 sites sorted by position p-value
--------------------------------------------------------------------------------
Sequence name             Start   P-value               Site 
-------------             ----- ---------            ----------
LOC_Os10g31850              426  7.44e-06 TTGAAGGAGG AAAAAAAAAA CTAGAGAGAG
LOC_Os09g21740              300  7.44e-06 GTTTCCGGCC AAAAAAAAAA ACGCCCACCC
LOC_Os08g42530              356  7.44e-06 AAGAAAAAAG AAAAAAAAAA CAAAGAGTAG
LOC_Os07g46950              164  7.44e-06 CTCTCTCCGT AAAAAAAAAA AACCTTGTGT
LOC_Os07g40300              323  7.44e-06 CTAGCTAGGC AAAAAAAAAA AAAAAAGAAG
LOC_Os07g05360              460  7.44e-06 GAACTATATC AAAAAAAAAA AAGCACCATT
LOC_Os06g16330               64  7.44e-06 AGACAGAGAG AAAAAAAAAA GAAGAGTAGA
LOC_Os04g52390              156  7.44e-06 AGGTACTATG AAAAAAAAAA TCCCCAACAC
LOC_Os04g51880              143  7.44e-06 TTGAATTTAT AAAAAAAAAA TGTAACAACA
LOC_Os03g41330              303  7.44e-06 GGCGGAGGTG AAAAAAAAAA CAAAGCGGGG
LOC_Os03g22620               35  7.44e-06 AAACTTTTGT AAAAAAAAAA TAAACCGTTT
LOC_Os03g20870              408  7.44e-06 AAGCCATAAC AAAAAAAAAA AAAAAAGAAG
LOC_Os02g46460              277  7.44e-06 AGAACGGGAT AAAAAAAAAA AAAGAGAGGT
LOC_Os01g74450               86  7.44e-06 TTGAGTTTTC AAAAAAAAAA GAGGTACCTG
LOC_Os01g67360              442  7.44e-06 CGAGAAGTTC AAAAAAAAAA AAACATTCGC
LOC_Os01g50610              157  7.44e-06 AAGCCGAGAG AAAAAAAAAA AGCTCGCTCC
LOC_Os01g37910              131  7.44e-06 TACCACTATG AAAAAAAAAA TGATTGTATG
LOC_Os12g29220              361  1.19e-05 AAGCAAATAA AGAAAAAAAA TCTTTGCATA
LOC_Os11g36160              438  1.19e-05 AAAATATATT AGAAAAAAAA GTTCAAGACT
LOC_Os11g25160               25  1.19e-05 TTGACATATG AGAAAAAAAA TCAAACGATT
LOC_Os03g46570              251  1.19e-05 TTTACTCCTT AGAAAAAAAA ATCTCTTTTC
LOC_Os01g12490              261  1.19e-05 ATGCACGGGG AGAAAAAAAA ACGTATGTAC
LOC_Os12g35350              303  1.64e-05 TAATACGATG AAAAAAAAGA CGATGTCTTT
LOC_Os11g34460              167  1.64e-05 CTTTTCCTAT AAAAAAAAGA GAGAGGTGGA
LOC_Os10g22050              172  1.64e-05 CATTCGAGAG AAAAAAAAGA AGAAAAAGGC
LOC_Os05g31570              231  1.64e-05 AATACAATTT AAAAAAAAGA AAATTTGGAA
LOC_Os04g58710              431  1.64e-05 GAACCCTCGA AAAAAAAAGA AATAAAGAAA
LOC_Os04g35790              405  1.64e-05 TTGTAGAATA AAAAAAAAGA TAAAAGCCAA
LOC_Os03g04660               40  1.64e-05 ATCTTTTTTT AAAAAAAAGA TGTAACTGTT
LOC_Os01g65169              485  1.64e-05 GAGTTCTTCC AAAAAAAAGA AGAAGA    
LOC_Os04g51980              258  2.10e-05 ATTTCGTAAC GAAAAAAAAA CAAATTAAAC
LOC_Os02g49720              286  2.10e-05 AACAAAAGGG GAAAAAAAAA CAGCCTGATA
LOC_Os01g39110              433  2.10e-05 TTACTCAAGT GAAAAAAAAA GGGGTTCAAT
LOC_Os09g37710              113  2.82e-05 TCAAACAAAT AAAGAAAAAA CTGTACTCTG
LOC_Os05g37950              303  2.82e-05 CTTATCATCG AAAGAAAAAA GAGAACACCA
LOC_Os01g50622              306  2.82e-05 CTTTCTATCC AAAGAAAAAA TATCCTGATG
LOC_Os01g45830              143  2.82e-05 GATAGTTTGG AAAGAAAAAA GAAGTTATTC
LOC_Os12g32360              169  3.34e-05 TCCACAACAC AAAAAAAAAC ATTCAAAACC
LOC_Os05g12320              381  3.34e-05 TCATAGCAAC AAAAAAAAAC AGATATTCTA
LOC_Os03g60430              349  3.34e-05 GTAACGTCTT AAAAAAAAAC TCAACCCAAA
LOC_Os01g69920               95  3.34e-05 CATCGATTAT AAAAAAAAAC CTAACTTCCC
LOC_Os08g31510              280  4.04e-05 TGTCTTTTTT ATAAAAAAAA CAGTGACGGA
LOC_Os04g58160              279  4.04e-05 AAAACTTTTA ATAAAAAAAA TTATAAATAA
LOC_Os04g01960              343  4.04e-05 TACTCAATAA ATAAAAAAAA TAATATTATA
LOC_Os03g11734              138  4.04e-05 TTTAAATCTT ATAAAAAAAA TTAAGAAGAT
LOC_Os07g41280              460  4.77e-05 AAATTAAATA AAAAAAGAAA TCATATGCAT
LOC_Os06g09350              246  4.77e-05 CGACGAAAAC AAAAAAGAAA CCCGTAAATT
LOC_Os01g25720              205  4.77e-05 AGCCGTCCCA GGAAAAAAAA TTGAAAAAAA
LOC_Os09g02270              270  5.76e-05 ACGAGCAGCT AAAAAAAAAG TCAATAAGAA
LOC_Os08g44360              167  5.76e-05 TCTTTTTAAT GAAAAAAAGA GAGTCGTATT
LOC_Os10g25010               46  6.35e-05 GATGTCTCAC AGAAAAAAAC AATTCTTTTT
LOC_Os03g28300              220  6.35e-05 GGATACCCAA AAAGAAAAGA TTGGTCCACA
LOC_Os01g12130               80  6.35e-05 ATAGCCTTTC AGAAAAAAAC TTTTAGTCTT
LOC_Os11g31190              254  6.67e-05 TGAAGGAAAC AAAAAAAAGC TAGCAGATTG
LOC_Os04g58390              233  7.62e-05 TAATAAAAAA ATAAAAAAGA ATCTCGATTT
LOC_Os01g11570              189  7.62e-05 TAGTACTAAC AAAAAAAACA CTCTCAATTA
LOC_Os09g26310              282  8.60e-05 AGATCAATGT AAAAAATAAA TCATAATTGA
LOC_Os04g42620               60  8.60e-05 TCCCCATCCA AAAAAATAAA AGATTTTATC
LOC_Os03g18790              154  8.60e-05 TTCGATTCTG AAAAAATAAA TATGAAAACG
LOC_Os09g26370               82  1.08e-04 CATCTTTGTT AAAAAAAAAT TGTATCATTA
LOC_Os08g02070              372  1.08e-04 TCGTCCCGAC AAAAAACAAA TAATATTCTC
LOC_Os02g03840               20  1.08e-04 CTACACTCAA GGAAAAAAGA ATGAAAGATA
LOC_Os10g37240              486  1.16e-04 CCTAATCATT AAAAAAAAGG GCCAC     
LOC_Os04g41570                9  1.16e-04   CAGAAAAC AAAAAAAAGG GCGAGAGGAA
LOC_Os11g20020              416  1.30e-04 AACAGGGAGA GTAAAAAAAA TTATGGATTT
LOC_Os09g23300              358  1.30e-04 AATGTCGTGA AAAGAAAAAC ACATTAATTC
LOC_Os07g45570               56  1.30e-04 TGTATTGGTA GTAAAAAAAA CTTGTTAGGT
LOC_Os03g01880               87  1.30e-04 CTTGCCAAAC AAAACAAAAA TGATAAGATC
LOC_Os01g55150              472  1.30e-04 ATGCTAGTAT AAAACAAAAA CCGGCAGATC
LOC_Os09g25690              429  1.38e-04 AAAGAAAACT AGAAAAAACA CACATCTGAA
LOC_Os08g14990              152  1.38e-04 CTAATTTTGC AGAAAAAACA GAACCTTCCA
LOC_Os04g09604               32  1.50e-04 TTACTAGTAA AGAAAATAAA TAAATATAAA
LOC_Os05g51610              303  1.70e-04 AAAAAATCCA AAAGAAGAAA AGGGTTTAAT
LOC_Os01g39770              163  1.70e-04 TTATAAATTT AAAAAATAGA TTTCTTTACT
LOC_Os04g20164              378  2.19e-04 GAATGCCCAT ATAAAAAAAG GGAAATGTTA
LOC_Os09g17329              376  2.65e-04 AGAGAATACT AGAGAAGAAA TTGTTATATT
LOC_Os09g16330               32  2.65e-04 TTACAAACTT AGAAAATAGA TTAATATGAT
LOC_Os06g48180              302  2.65e-04 ACTAAGGCCC AAAAAAGAAG CAAACTGGCT
LOC_Os05g36010               56  2.65e-04 TTAATCCTAT GAAAAAAAAT CATATAAATG
LOC_Os01g25710              114  2.92e-04 GATGAAAAAC AGAGAAAAAG GGTAGAGATG
LOC_Os11g42800               38  3.15e-04 CAAGTGGTGA GGAAAAAAGC AGATGAAGCT
LOC_Os08g07970              446  3.15e-04 TTTCTGAGGG GGAAAAAAGC AGGGGTGGCT
LOC_Os07g33480              348  3.15e-04 TTGGAAGTTT GAAGAAAAAC AAGGCCTGTA
LOC_Os12g38750               49  3.43e-04 TAGACTAATA ATAAAACAAA TTACAGATTC
LOC_Os10g25150               49  3.43e-04 TCCTACCATC ATAAAAAAAT CAGGTAAAAA
LOC_Os01g20160              478  3.43e-04 AAAGATAAGT ATAAAAAAAT CGATATACCT
LOC_Os05g24140              272  3.93e-04 TCTGTGTTCG GGAAAACAAA TGCAGTACTT
LOC_Os08g15050               91  4.20e-04 CGTCCCGATT AGAGAAAAAT CGATGTGATA
LOC_Os01g63460               64  4.47e-04 AAGATTCATG AAAGAGAAAA TTCCACATCT
LOC_Os01g42690              219  4.77e-04 AACACAAGTT AGAAAAGACA TTTTATTCAG
LOC_Os01g11620                2  5.51e-04          A ATAACAAAGA AATGCTTCTA
LOC_Os07g15370               97  6.68e-04 TGACACACAC AAAACACAAA AGCTAATCAT
LOC_Os05g51690               76  6.68e-04 TAACTCTCAT AAAGAGAAGA AGTGGTAAAG
LOC_Os01g24430              300  6.68e-04 AAGTAGCCGT GAAAAAGACA GACCAAGACA
--------------------------------------------------------------------------------

--------------------------------------------------------------------------------
	Motif 1 block diagrams
--------------------------------------------------------------------------------
SEQUENCE NAME            POSITION P-VALUE  MOTIF DIAGRAM
-------------            ----------------  -------------
LOC_Os10g31850                    7.4e-06  425_[+1]_65
LOC_Os09g21740                    7.4e-06  299_[+1]_191
LOC_Os08g42530                    7.4e-06  355_[+1]_135
LOC_Os07g46950                    7.4e-06  163_[+1]_327
LOC_Os07g40300                    7.4e-06  322_[+1]_168
LOC_Os07g05360                    7.4e-06  459_[+1]_31
LOC_Os06g16330                    7.4e-06  63_[+1]_427
LOC_Os04g52390                    7.4e-06  155_[+1]_335
LOC_Os04g51880                    7.4e-06  142_[+1]_348
LOC_Os03g41330                    7.4e-06  302_[+1]_188
LOC_Os03g22620                    7.4e-06  34_[+1]_456
LOC_Os03g20870                    7.4e-06  407_[+1]_83
LOC_Os02g46460                    7.4e-06  276_[+1]_214
LOC_Os01g74450                    7.4e-06  85_[+1]_405
LOC_Os01g67360                    7.4e-06  441_[+1]_49
LOC_Os01g50610                    7.4e-06  156_[+1]_334
LOC_Os01g37910                    7.4e-06  130_[+1]_360
LOC_Os12g29220                    1.2e-05  360_[+1]_130
LOC_Os11g36160                    1.2e-05  437_[+1]_53
LOC_Os11g25160                    1.2e-05  24_[+1]_466
LOC_Os03g46570                    1.2e-05  250_[+1]_240
LOC_Os01g12490                    1.2e-05  260_[+1]_230
LOC_Os12g35350                    1.6e-05  302_[+1]_188
LOC_Os11g34460                    1.6e-05  166_[+1]_324
LOC_Os10g22050                    1.6e-05  171_[+1]_319
LOC_Os05g31570                    1.6e-05  230_[+1]_260
LOC_Os04g58710                    1.6e-05  430_[+1]_60
LOC_Os04g35790                    1.6e-05  404_[+1]_86
LOC_Os03g04660                    1.6e-05  39_[+1]_451
LOC_Os01g65169                    1.6e-05  484_[+1]_6
LOC_Os04g51980                    2.1e-05  257_[+1]_233
LOC_Os02g49720                    2.1e-05  285_[+1]_205
LOC_Os01g39110                    2.1e-05  432_[+1]_58
LOC_Os09g37710                    2.8e-05  112_[+1]_378
LOC_Os05g37950                    2.8e-05  302_[+1]_188
LOC_Os01g50622                    2.8e-05  305_[+1]_185
LOC_Os01g45830                    2.8e-05  142_[+1]_348
LOC_Os12g32360                    3.3e-05  168_[+1]_322
LOC_Os05g12320                    3.3e-05  380_[+1]_110
LOC_Os03g60430                    3.3e-05  348_[+1]_142
LOC_Os01g69920                    3.3e-05  94_[+1]_396
LOC_Os08g31510                      4e-05  279_[+1]_211
LOC_Os04g58160                      4e-05  278_[+1]_212
LOC_Os04g01960                      4e-05  342_[+1]_148
LOC_Os03g11734                      4e-05  137_[+1]_353
LOC_Os07g41280                    4.8e-05  459_[+1]_31
LOC_Os06g09350                    4.8e-05  245_[+1]_245
LOC_Os01g25720                    4.8e-05  204_[+1]_286
LOC_Os09g02270                    5.8e-05  269_[+1]_221
LOC_Os08g44360                    5.8e-05  166_[+1]_324
LOC_Os10g25010                    6.4e-05  45_[+1]_445
LOC_Os03g28300                    6.4e-05  219_[+1]_271
LOC_Os01g12130                    6.4e-05  79_[+1]_411
LOC_Os11g31190                    6.7e-05  253_[+1]_237
LOC_Os04g58390                    7.6e-05  232_[+1]_258
LOC_Os01g11570                    7.6e-05  188_[+1]_302
LOC_Os09g26310                    8.6e-05  281_[+1]_209
LOC_Os04g42620                    8.6e-05  59_[+1]_431
LOC_Os03g18790                    8.6e-05  153_[+1]_337
LOC_Os09g26370                    0.00011  81_[+1]_409
LOC_Os08g02070                    0.00011  371_[+1]_119
LOC_Os02g03840                    0.00011  19_[+1]_471
LOC_Os10g37240                    0.00012  485_[+1]_5
LOC_Os04g41570                    0.00012  8_[+1]_482
LOC_Os11g20020                    0.00013  415_[+1]_75
LOC_Os09g23300                    0.00013  357_[+1]_133
LOC_Os07g45570                    0.00013  55_[+1]_435
LOC_Os03g01880                    0.00013  86_[+1]_404
LOC_Os01g55150                    0.00013  471_[+1]_19
LOC_Os09g25690                    0.00014  428_[+1]_62
LOC_Os08g14990                    0.00014  151_[+1]_339
LOC_Os04g09604                    0.00015  31_[+1]_459
LOC_Os05g51610                    0.00017  302_[+1]_188
LOC_Os01g39770                    0.00017  162_[+1]_328
LOC_Os04g20164                    0.00022  377_[+1]_113
LOC_Os09g17329                    0.00026  375_[+1]_115
LOC_Os09g16330                    0.00026  31_[+1]_459
LOC_Os06g48180                    0.00026  301_[+1]_189
LOC_Os05g36010                    0.00026  55_[+1]_435
LOC_Os01g25710                    0.00029  113_[+1]_377
LOC_Os11g42800                    0.00032  37_[+1]_453
LOC_Os08g07970                    0.00032  445_[+1]_45
LOC_Os07g33480                    0.00032  347_[+1]_143
LOC_Os12g38750                    0.00034  48_[+1]_442
LOC_Os10g25150                    0.00034  48_[+1]_442
LOC_Os01g20160                    0.00034  477_[+1]_13
LOC_Os05g24140                    0.00039  271_[+1]_219
LOC_Os08g15050                    0.00042  90_[+1]_400
LOC_Os01g63460                    0.00045  63_[+1]_427
LOC_Os01g42690                    0.00048  218_[+1]_272
LOC_Os01g11620                    0.00055  1_[+1]_489
LOC_Os07g15370                    0.00067  96_[+1]_394
LOC_Os05g51690                    0.00067  75_[+1]_415
LOC_Os01g24430                    0.00067  299_[+1]_191
--------------------------------------------------------------------------------

--------------------------------------------------------------------------------
	Motif 1 in BLOCKS format
--------------------------------------------------------------------------------
BL   MOTIF 1 width=10 seqs=94
LOC_Os10g31850           (  426) AAAAAAAAAA  1 
LOC_Os09g21740           (  300) AAAAAAAAAA  1 
LOC_Os08g42530           (  356) AAAAAAAAAA  1 
LOC_Os07g46950           (  164) AAAAAAAAAA  1 
LOC_Os07g40300           (  323) AAAAAAAAAA  1 
LOC_Os07g05360           (  460) AAAAAAAAAA  1 
LOC_Os06g16330           (   64) AAAAAAAAAA  1 
LOC_Os04g52390           (  156) AAAAAAAAAA  1 
LOC_Os04g51880           (  143) AAAAAAAAAA  1 
LOC_Os03g41330           (  303) AAAAAAAAAA  1 
LOC_Os03g22620           (   35) AAAAAAAAAA  1 
LOC_Os03g20870           (  408) AAAAAAAAAA  1 
LOC_Os02g46460           (  277) AAAAAAAAAA  1 
LOC_Os01g74450           (   86) AAAAAAAAAA  1 
LOC_Os01g67360           (  442) AAAAAAAAAA  1 
LOC_Os01g50610           (  157) AAAAAAAAAA  1 
LOC_Os01g37910           (  131) AAAAAAAAAA  1 
LOC_Os12g29220           (  361) AGAAAAAAAA  1 
LOC_Os11g36160           (  438) AGAAAAAAAA  1 
LOC_Os11g25160           (   25) AGAAAAAAAA  1 
LOC_Os03g46570           (  251) AGAAAAAAAA  1 
LOC_Os01g12490           (  261) AGAAAAAAAA  1 
LOC_Os12g35350           (  303) AAAAAAAAGA  1 
LOC_Os11g34460           (  167) AAAAAAAAGA  1 
LOC_Os10g22050           (  172) AAAAAAAAGA  1 
LOC_Os05g31570           (  231) AAAAAAAAGA  1 
LOC_Os04g58710           (  431) AAAAAAAAGA  1 
LOC_Os04g35790           (  405) AAAAAAAAGA  1 
LOC_Os03g04660           (   40) AAAAAAAAGA  1 
LOC_Os01g65169           (  485) AAAAAAAAGA  1 
LOC_Os04g51980           (  258) GAAAAAAAAA  1 
LOC_Os02g49720           (  286) GAAAAAAAAA  1 
LOC_Os01g39110           (  433) GAAAAAAAAA  1 
LOC_Os09g37710           (  113) AAAGAAAAAA  1 
LOC_Os05g37950           (  303) AAAGAAAAAA  1 
LOC_Os01g50622           (  306) AAAGAAAAAA  1 
LOC_Os01g45830           (  143) AAAGAAAAAA  1 
LOC_Os12g32360           (  169) AAAAAAAAAC  1 
LOC_Os05g12320           (  381) AAAAAAAAAC  1 
LOC_Os03g60430           (  349) AAAAAAAAAC  1 
LOC_Os01g69920           (   95) AAAAAAAAAC  1 
LOC_Os08g31510           (  280) ATAAAAAAAA  1 
LOC_Os04g58160           (  279) ATAAAAAAAA  1 
LOC_Os04g01960           (  343) ATAAAAAAAA  1 
LOC_Os03g11734           (  138) ATAAAAAAAA  1 
LOC_Os07g41280           (  460) AAAAAAGAAA  1 
LOC_Os06g09350           (  246) AAAAAAGAAA  1 
LOC_Os01g25720           (  205) GGAAAAAAAA  1 
LOC_Os09g02270           (  270) AAAAAAAAAG  1 
LOC_Os08g44360           (  167) GAAAAAAAGA  1 
LOC_Os10g25010           (   46) AGAAAAAAAC  1 
LOC_Os03g28300           (  220) AAAGAAAAGA  1 
LOC_Os01g12130           (   80) AGAAAAAAAC  1 
LOC_Os11g31190           (  254) AAAAAAAAGC  1 
LOC_Os04g58390           (  233) ATAAAAAAGA  1 
LOC_Os01g11570           (  189) AAAAAAAACA  1 
LOC_Os09g26310           (  282) AAAAAATAAA  1 
LOC_Os04g42620           (   60) AAAAAATAAA  1 
LOC_Os03g18790           (  154) AAAAAATAAA  1 
LOC_Os09g26370           (   82) AAAAAAAAAT  1 
LOC_Os08g02070           (  372) AAAAAACAAA  1 
LOC_Os02g03840           (   20) GGAAAAAAGA  1 
LOC_Os10g37240           (  486) AAAAAAAAGG  1 
LOC_Os04g41570           (    9) AAAAAAAAGG  1 
LOC_Os11g20020           (  416) GTAAAAAAAA  1 
LOC_Os09g23300           (  358) AAAGAAAAAC  1 
LOC_Os07g45570           (   56) GTAAAAAAAA  1 
LOC_Os03g01880           (   87) AAAACAAAAA  1 
LOC_Os01g55150           (  472) AAAACAAAAA  1 
LOC_Os09g25690           (  429) AGAAAAAACA  1 
LOC_Os08g14990           (  152) AGAAAAAACA  1 
LOC_Os04g09604           (   32) AGAAAATAAA  1 
LOC_Os05g51610           (  303) AAAGAAGAAA  1 
LOC_Os01g39770           (  163) AAAAAATAGA  1 
LOC_Os04g20164           (  378) ATAAAAAAAG  1 
LOC_Os09g17329           (  376) AGAGAAGAAA  1 
LOC_Os09g16330           (   32) AGAAAATAGA  1 
LOC_Os06g48180           (  302) AAAAAAGAAG  1 
LOC_Os05g36010           (   56) GAAAAAAAAT  1 
LOC_Os01g25710           (  114) AGAGAAAAAG  1 
LOC_Os11g42800           (   38) GGAAAAAAGC  1 
LOC_Os08g07970           (  446) GGAAAAAAGC  1 
LOC_Os07g33480           (  348) GAAGAAAAAC  1 
LOC_Os12g38750           (   49) ATAAAACAAA  1 
LOC_Os10g25150           (   49) ATAAAAAAAT  1 
LOC_Os01g20160           (  478) ATAAAAAAAT  1 
LOC_Os05g24140           (  272) GGAAAACAAA  1 
LOC_Os08g15050           (   91) AGAGAAAAAT  1 
LOC_Os01g63460           (   64) AAAGAGAAAA  1 
LOC_Os01g42690           (  219) AGAAAAGACA  1 
LOC_Os01g11620           (    2) ATAACAAAGA  1 
LOC_Os07g15370           (   97) AAAACACAAA  1 
LOC_Os05g51690           (   76) AAAGAGAAGA  1 
LOC_Os01g24430           (  300) GAAAAAGACA  1 
//

--------------------------------------------------------------------------------

--------------------------------------------------------------------------------
	Motif 1 position-specific scoring matrix
--------------------------------------------------------------------------------
log-odds matrix: alength= 4 w= 10 n= 69231 bayes= 10.4113 E= 1.3e-015 
   147  -1320    -32  -1320 
   110  -1320     19   -118 
   170  -1320  -1320  -1320 
   149  -1320    -43  -1320 
   164   -235  -1320  -1320 
   167  -1320   -313  -1320 
   142   -235   -132   -218 
   170  -1320  -1320  -1320 
   124   -202     26  -1320 
   132    -89   -155   -245 
--------------------------------------------------------------------------------

--------------------------------------------------------------------------------
	Motif 1 position-specific probability matrix
--------------------------------------------------------------------------------
letter-probability matrix: alength= 4 w= 10 nsites= 94 E= 1.3e-015 
 0.851064  0.000000  0.148936  0.000000 
 0.659574  0.000000  0.212766  0.127660 
 1.000000  0.000000  0.000000  0.000000 
 0.861702  0.000000  0.138298  0.000000 
 0.957447  0.042553  0.000000  0.000000 
 0.978723  0.000000  0.021277  0.000000 
 0.819149  0.042553  0.074468  0.063830 
 1.000000  0.000000  0.000000  0.000000 
 0.723404  0.053191  0.223404  0.000000 
 0.765957  0.117021  0.063830  0.053191 
--------------------------------------------------------------------------------

--------------------------------------------------------------------------------
	Motif 1 regular expression
--------------------------------------------------------------------------------
A[AG]AAAAAA[AG]A
--------------------------------------------------------------------------------




Time 44.61 secs.

********************************************************************************


********************************************************************************
MOTIF  2 MEME	width =  10  sites =  81  llr = 675  E-value = 9.6e-008
********************************************************************************
--------------------------------------------------------------------------------
	Motif 2 Description
--------------------------------------------------------------------------------
Simplified        A  :::::::155
pos.-specific     C  ::2:1::13:
probability       G  :1:1::::::
matrix            T  a9898aa825

         bits    2.4           
                 2.2           
                 1.9           
                 1.7 *    **   
Relative         1.5 ** * **   
Entropy          1.2 **** **   
(12.0 bits)      1.0 *******   
                 0.7 ******** *
                 0.5 ******** *
                 0.2 **********
                 0.0 ----------

Multilevel           TTTTTTTTAT
consensus                    CA
sequence                       
                               
--------------------------------------------------------------------------------

--------------------------------------------------------------------------------
	Motif 2 sites sorted by position p-value
--------------------------------------------------------------------------------
Sequence name             Start   P-value               Site 
-------------             ----- ---------            ----------
LOC_Os10g28680              314  4.45e-06 CATACGTCTA TTTTTTTTAT TCAACGGTAG
LOC_Os07g33480              277  4.45e-06 TGTGTAATTG TTTTTTTTAT TTATATTTAA
LOC_Os05g37950              184  4.45e-06 ATATCATATG TTTTTTTTAT TTCTCTATTT
LOC_Os04g51880              101  4.45e-06 CATGCTTTAA TTTTTTTTAT AGCTAAACTT
LOC_Os04g35790              484  4.45e-06 CGCTGAAGCT TTTTTTTTAT TCTTTTC   
LOC_Os01g39770              205  4.45e-06 CTTTATATAC TTTTTTTTAT CATCTAGAAG
LOC_Os01g11620              234  4.45e-06 ATATTTTTAC TTTTTTTTAT AATAGAAGTT
LOC_Os01g11570              319  4.45e-06 TCGGTTTGGA TTTTTTTTAT GGAAGGAGTC
LOC_Os01g05810              213  4.45e-06 GAGTTCAAAT TTTTTTTTAT CCATAGTCCC
LOC_Os07g41280              344  7.59e-06 AAAACAAGTT TTTTTTTTCT TTTCTCCCTC
LOC_Os07g15370              359  7.59e-06 GGCCCCCACA TTTTTTTTCT CTTTTAATTT
LOC_Os04g09604              167  7.59e-06 GCAGTCCATA TTTTTTTTCT GCTTTTCCTA
LOC_Os01g74450              115  7.59e-06 GCTTAGTGGT TTTTTTTTCT CACATGGCAC
LOC_Os01g65169               43  7.59e-06 CTTCCTCTTT TTTTTTTTCT GTTCAGTTGT
LOC_Os11g47460              306  1.23e-05 ATAGCTTTAG TTTTTTTTAA TATCTAATAA
LOC_Os11g25160              399  1.23e-05 GTCTGCACCT TTTTTTTTAA AGACTGGTAT
LOC_Os09g26370              107  1.23e-05 CATTATCATC TTTTTTTTAA AAAATAATGA
LOC_Os08g42530              265  1.23e-05 GCCGTAGTTT TTTTTTTTAA AAAAAGACCA
LOC_Os07g46950              207  1.23e-05 TAGGAGTGGG TTTTTTTTAA GAACCCGTAA
LOC_Os03g04660              350  1.23e-05 TGTCGACAGA TTTTTTTTAA TAACATAGAA
LOC_Os01g69920               48  1.23e-05 AGTCCCGTTT TTTTTTTTAA AAGTTAAATA
LOC_Os01g39110              308  1.23e-05 CAAGACTTGA TTTTTTTTAA AATTGAAATA
LOC_Os05g47790              413  1.56e-05 AGATATGGAT TTTTTTTTCA TATTTCTAAA
LOC_Os04g51980              366  1.56e-05 TATCTTCTTA TTTTTTTTCA AATTTTTTCA
LOC_Os03g41330              131  1.56e-05 GGGTTTCATA TTTTTTTTCA AATAAGACGG
LOC_Os12g32360              365  1.98e-05 GCGCGTAGGA TTTTTTTTTT TTTGGTGTGT
LOC_Os01g36580              133  1.98e-05 GATGCTCCAA TTTTTTTTTT TTTGAATACG
LOC_Os01g12490               22  1.98e-05 CCCATTCCTC TTTTTTTTTT TTACAATAGT
LOC_Os07g40300              468  2.76e-05 CACCCCCAGC TTCTTTTTAT AGCAAAGAAG
LOC_Os09g21740               71  2.99e-05 GGGAGCCTCA TTCTTTTTCT GACTCTTCTT
LOC_Os09g25690               82  3.68e-05 CTCCAAGTAT TTCTTTTTAA AGAAAAATAT
LOC_Os08g44360              156  3.68e-05 TGAGGCTTTT TTCTTTTTAA TGAAAAAAAG
LOC_Os10g22050              121  4.49e-05 TTTTAGACTA TTTTCTTTAT TCTTATTATA
LOC_Os03g46570              407  4.49e-05 TCCAGGCGGT TTTTTTTCCT TCTTATTCTG
LOC_Os01g25710                4  4.49e-05        AAC TTCTTTTTCA AGGAGTATAG
LOC_Os07g42160              140  5.07e-05 ATATAATTAA TTTTTTTCAA TATTTAATAT
LOC_Os03g63760              429  5.07e-05 AGACGCATAT TTTTCTTTCT CTTGCGACGG
LOC_Os11g26390              327  5.67e-05 AATGACAAAG TTTTTTTCCA CAATCATTAC
LOC_Os01g63460              389  5.67e-05 CTTGAGTACC TTTTCTTTAA GGCCTCTAAC
LOC_Os09g27220              289  5.92e-05 GTTATCTCTA TTTTCTTTCA CGTTATTAGG
LOC_Os07g05360              251  6.96e-05 GTAGTTACTC TTTTTTTAAT AAAAGGGAGC
LOC_Os04g58390               58  6.96e-05 AATAATTTGA TTTGTTTTAT TTAAATCTTA
LOC_Os04g27190               19  6.96e-05 AAAGAATTAA TGTTTTTTAT TCCTTACTAG
LOC_Os04g01960              295  6.96e-05 AAGATTATAG TTTTTTTAAT GATAAGTTTA
LOC_Os11g41600              115  7.69e-05 TATTCTAATG TGTTTTTTCT TATAAAAGAT
LOC_Os08g28170              228  7.69e-05 AGACATCCAC TTTGTTTTCT CTCAGTGTGA
LOC_Os05g36010              316  7.69e-05 CAAAATCCTG TGTTTTTTCT ATTCCTCTGT
LOC_Os01g46810              190  7.69e-05 AAAATTGCAT TTTGTTTTCT AAACCGAATT
LOC_Os11g34460               34  9.11e-05 TATTAATCTA TTTTTTTAAA AAAAATAGCT
LOC_Os02g03570              307  9.11e-05 AATTGTGCAC TTTTTTTAAA CTTCGGACAG
LOC_Os01g65130              149  9.11e-05 TCAAAGTTCA TTTTTTTAAA AACCTCATCA
LOC_Os03g03610               36  9.89e-05 CCTATTCCTC TGTTTTTTCA TCCATGTGAT
LOC_Os02g03840              440  9.89e-05 CGTTCTTTCT TTTGTTTTCA CTTTCTTTTC
LOC_Os12g38750              212  1.08e-04 GTGCAATTGA TTTTTTTTGT CTATATTTAA
LOC_Os10g25010               58  1.08e-04 AAAAAAACAA TTCTTTTTTA AATATTTACA
LOC_Os08g07970              241  1.08e-04 AAAAGCCTTC TTCTTTTTTA ACTTTTACAC
LOC_Os12g16080              442  1.17e-04 GCTCGGTCCG TTTTTTTCTA CTATATTAGG
LOC_Os06g09350               76  1.21e-04 ATTGTCCATA TTTTCTTTTA AAAGAGTATA
LOC_Os03g01880              242  1.21e-04 TGCATGGATG TTTTCTTTTA GAACACTGTT
LOC_Os05g31570              430  1.23e-04 GCCCACTTGT TTCTTTTCAT TCAATTATTA
LOC_Os08g31510              303  1.37e-04 TGACGGACAC TGTTTTTTTT TCCCACGGAA
LOC_Os03g42600              415  1.37e-04 GTAACAGTGT TGTTTTTTTT TGGGTAATCT
LOC_Os03g11734              262  1.37e-04 GTTTAATTTA TTTTTTTATT ACGATATGTA
LOC_Os11g36160               77  1.68e-04 CCATACGTGG TTTTCTTCAT CACTATTAGT
LOC_Os09g16330              206  1.68e-04 ATATATAATG TTTTGTTTCT AGAAGGCTAA
LOC_Os03g60430               71  1.68e-04 ATACTTTGAC TTTTTTTATA TGGTTCACTT
LOC_Os03g18790               41  1.68e-04 GTTTAAGGGG TTTTATTTAT TCCGATAAAT
LOC_Os02g20360               77  1.68e-04 GGTCACATAA TTCTTTTCCA TAAAGAATAG
LOC_Os09g02270              199  1.78e-04 TTTATTCGAG TTTTGTTTAA AATATTTCTA
LOC_Os10g25150              170  1.96e-04 TATAACTAGG TTCTTTTAAT CCAATAATGA
LOC_Os03g28300              394  1.96e-04 GCAGTGTACC TTTTATTTAA ATTATGTAGC
LOC_Os01g37910              389  2.07e-04 ATCTCTTATA TTTTATTTCA CTAACAAAAA
LOC_Os05g24140              381  2.19e-04 CAGGTATAGG TTTGTTTCAT AATAATTTCT
LOC_Os01g12130              109  2.19e-04 TGCCCTAGTA TTTGTTTCAT GAGTTGTGTC
LOC_Os11g42800              123  2.55e-04 AGAACATCTC TTCTTTTCTT TGTGGAGGAG
LOC_Os12g29220              261  2.72e-04 CCAATGCAAC TTTTTTTGAA AATTAGCCAG
LOC_Os05g07940              245  3.11e-04 GACCTTAGAA TTCTCTTTTA TATCAATCTT
LOC_Os04g58160              489  3.11e-04 TGTTGCTCTG TTTTCTTTGT TG        
LOC_Os02g49720              451  3.11e-04 TGAAGCCTCA TTCTCTTTTA TGGAAGGCAA
LOC_Os12g16290              203  3.29e-04 GCGTCCGTGG TTTTTTCTCT TCTGCTTTGG
LOC_Os01g53800               95  4.05e-04 ACTAGAACGC TTATTTTTCA AGTTATTATA
--------------------------------------------------------------------------------

--------------------------------------------------------------------------------
	Motif 2 block diagrams
--------------------------------------------------------------------------------
SEQUENCE NAME            POSITION P-VALUE  MOTIF DIAGRAM
-------------            ----------------  -------------
LOC_Os10g28680                    4.5e-06  313_[+2]_177
LOC_Os07g33480                    4.5e-06  276_[+2]_214
LOC_Os05g37950                    4.5e-06  183_[+2]_307
LOC_Os04g51880                    4.5e-06  100_[+2]_390
LOC_Os04g35790                    4.5e-06  483_[+2]_7
LOC_Os01g39770                    4.5e-06  204_[+2]_286
LOC_Os01g11620                    4.5e-06  233_[+2]_257
LOC_Os01g11570                    4.5e-06  318_[+2]_172
LOC_Os01g05810                    4.5e-06  212_[+2]_278
LOC_Os07g41280                    7.6e-06  343_[+2]_147
LOC_Os07g15370                    7.6e-06  358_[+2]_132
LOC_Os04g09604                    7.6e-06  166_[+2]_324
LOC_Os01g74450                    7.6e-06  114_[+2]_376
LOC_Os01g65169                    7.6e-06  42_[+2]_448
LOC_Os11g47460                    1.2e-05  305_[+2]_185
LOC_Os11g25160                    1.2e-05  398_[+2]_92
LOC_Os09g26370                    1.2e-05  106_[+2]_384
LOC_Os08g42530                    1.2e-05  264_[+2]_226
LOC_Os07g46950                    1.2e-05  206_[+2]_284
LOC_Os03g04660                    1.2e-05  349_[+2]_141
LOC_Os01g69920                    1.2e-05  47_[+2]_443
LOC_Os01g39110                    1.2e-05  307_[+2]_183
LOC_Os05g47790                    1.6e-05  412_[+2]_78
LOC_Os04g51980                    1.6e-05  365_[+2]_125
LOC_Os03g41330                    1.6e-05  130_[+2]_360
LOC_Os12g32360                      2e-05  364_[+2]_126
LOC_Os01g36580                      2e-05  132_[+2]_358
LOC_Os01g12490                      2e-05  21_[+2]_469
LOC_Os07g40300                    2.8e-05  467_[+2]_23
LOC_Os09g21740                      3e-05  70_[+2]_420
LOC_Os09g25690                    3.7e-05  81_[+2]_409
LOC_Os08g44360                    3.7e-05  155_[+2]_335
LOC_Os10g22050                    4.5e-05  120_[+2]_370
LOC_Os03g46570                    4.5e-05  406_[+2]_84
LOC_Os01g25710                    4.5e-05  3_[+2]_487
LOC_Os07g42160                    5.1e-05  139_[+2]_351
LOC_Os03g63760                    5.1e-05  428_[+2]_62
LOC_Os11g26390                    5.7e-05  326_[+2]_164
LOC_Os01g63460                    5.7e-05  388_[+2]_102
LOC_Os09g27220                    5.9e-05  288_[+2]_202
LOC_Os07g05360                      7e-05  250_[+2]_240
LOC_Os04g58390                      7e-05  57_[+2]_433
LOC_Os04g27190                      7e-05  18_[+2]_472
LOC_Os04g01960                      7e-05  294_[+2]_196
LOC_Os11g41600                    7.7e-05  114_[+2]_376
LOC_Os08g28170                    7.7e-05  227_[+2]_263
LOC_Os05g36010                    7.7e-05  315_[+2]_175
LOC_Os01g46810                    7.7e-05  189_[+2]_301
LOC_Os11g34460                    9.1e-05  33_[+2]_457
LOC_Os02g03570                    9.1e-05  306_[+2]_184
LOC_Os01g65130                    9.1e-05  148_[+2]_342
LOC_Os03g03610                    9.9e-05  35_[+2]_455
LOC_Os02g03840                    9.9e-05  439_[+2]_51
LOC_Os12g38750                    0.00011  211_[+2]_279
LOC_Os10g25010                    0.00011  57_[+2]_433
LOC_Os08g07970                    0.00011  240_[+2]_250
LOC_Os12g16080                    0.00012  441_[+2]_49
LOC_Os06g09350                    0.00012  75_[+2]_415
LOC_Os03g01880                    0.00012  241_[+2]_249
LOC_Os05g31570                    0.00012  429_[+2]_61
LOC_Os08g31510                    0.00014  302_[+2]_188
LOC_Os03g42600                    0.00014  414_[+2]_76
LOC_Os03g11734                    0.00014  261_[+2]_229
LOC_Os11g36160                    0.00017  76_[+2]_414
LOC_Os09g16330                    0.00017  205_[+2]_285
LOC_Os03g60430                    0.00017  70_[+2]_420
LOC_Os03g18790                    0.00017  40_[+2]_450
LOC_Os02g20360                    0.00017  76_[+2]_414
LOC_Os09g02270                    0.00018  198_[+2]_292
LOC_Os10g25150                     0.0002  169_[+2]_321
LOC_Os03g28300                     0.0002  393_[+2]_97
LOC_Os01g37910                    0.00021  388_[+2]_102
LOC_Os05g24140                    0.00022  380_[+2]_110
LOC_Os01g12130                    0.00022  108_[+2]_382
LOC_Os11g42800                    0.00025  122_[+2]_368
LOC_Os12g29220                    0.00027  260_[+2]_230
LOC_Os05g07940                    0.00031  244_[+2]_246
LOC_Os04g58160                    0.00031  488_[+2]_2
LOC_Os02g49720                    0.00031  450_[+2]_40
LOC_Os12g16290                    0.00033  202_[+2]_288
LOC_Os01g53800                     0.0004  94_[+2]_396
--------------------------------------------------------------------------------

--------------------------------------------------------------------------------
	Motif 2 in BLOCKS format
--------------------------------------------------------------------------------
BL   MOTIF 2 width=10 seqs=81
LOC_Os10g28680           (  314) TTTTTTTTAT  1 
LOC_Os07g33480           (  277) TTTTTTTTAT  1 
LOC_Os05g37950           (  184) TTTTTTTTAT  1 
LOC_Os04g51880           (  101) TTTTTTTTAT  1 
LOC_Os04g35790           (  484) TTTTTTTTAT  1 
LOC_Os01g39770           (  205) TTTTTTTTAT  1 
LOC_Os01g11620           (  234) TTTTTTTTAT  1 
LOC_Os01g11570           (  319) TTTTTTTTAT  1 
LOC_Os01g05810           (  213) TTTTTTTTAT  1 
LOC_Os07g41280           (  344) TTTTTTTTCT  1 
LOC_Os07g15370           (  359) TTTTTTTTCT  1 
LOC_Os04g09604           (  167) TTTTTTTTCT  1 
LOC_Os01g74450           (  115) TTTTTTTTCT  1 
LOC_Os01g65169           (   43) TTTTTTTTCT  1 
LOC_Os11g47460           (  306) TTTTTTTTAA  1 
LOC_Os11g25160           (  399) TTTTTTTTAA  1 
LOC_Os09g26370           (  107) TTTTTTTTAA  1 
LOC_Os08g42530           (  265) TTTTTTTTAA  1 
LOC_Os07g46950           (  207) TTTTTTTTAA  1 
LOC_Os03g04660           (  350) TTTTTTTTAA  1 
LOC_Os01g69920           (   48) TTTTTTTTAA  1 
LOC_Os01g39110           (  308) TTTTTTTTAA  1 
LOC_Os05g47790           (  413) TTTTTTTTCA  1 
LOC_Os04g51980           (  366) TTTTTTTTCA  1 
LOC_Os03g41330           (  131) TTTTTTTTCA  1 
LOC_Os12g32360           (  365) TTTTTTTTTT  1 
LOC_Os01g36580           (  133) TTTTTTTTTT  1 
LOC_Os01g12490           (   22) TTTTTTTTTT  1 
LOC_Os07g40300           (  468) TTCTTTTTAT  1 
LOC_Os09g21740           (   71) TTCTTTTTCT  1 
LOC_Os09g25690           (   82) TTCTTTTTAA  1 
LOC_Os08g44360           (  156) TTCTTTTTAA  1 
LOC_Os10g22050           (  121) TTTTCTTTAT  1 
LOC_Os03g46570           (  407) TTTTTTTCCT  1 
LOC_Os01g25710           (    4) TTCTTTTTCA  1 
LOC_Os07g42160           (  140) TTTTTTTCAA  1 
LOC_Os03g63760           (  429) TTTTCTTTCT  1 
LOC_Os11g26390           (  327) TTTTTTTCCA  1 
LOC_Os01g63460           (  389) TTTTCTTTAA  1 
LOC_Os09g27220           (  289) TTTTCTTTCA  1 
LOC_Os07g05360           (  251) TTTTTTTAAT  1 
LOC_Os04g58390           (   58) TTTGTTTTAT  1 
LOC_Os04g27190           (   19) TGTTTTTTAT  1 
LOC_Os04g01960           (  295) TTTTTTTAAT  1 
LOC_Os11g41600           (  115) TGTTTTTTCT  1 
LOC_Os08g28170           (  228) TTTGTTTTCT  1 
LOC_Os05g36010           (  316) TGTTTTTTCT  1 
LOC_Os01g46810           (  190) TTTGTTTTCT  1 
LOC_Os11g34460           (   34) TTTTTTTAAA  1 
LOC_Os02g03570           (  307) TTTTTTTAAA  1 
LOC_Os01g65130           (  149) TTTTTTTAAA  1 
LOC_Os03g03610           (   36) TGTTTTTTCA  1 
LOC_Os02g03840           (  440) TTTGTTTTCA  1 
LOC_Os12g38750           (  212) TTTTTTTTGT  1 
LOC_Os10g25010           (   58) TTCTTTTTTA  1 
LOC_Os08g07970           (  241) TTCTTTTTTA  1 
LOC_Os12g16080           (  442) TTTTTTTCTA  1 
LOC_Os06g09350           (   76) TTTTCTTTTA  1 
LOC_Os03g01880           (  242) TTTTCTTTTA  1 
LOC_Os05g31570           (  430) TTCTTTTCAT  1 
LOC_Os08g31510           (  303) TGTTTTTTTT  1 
LOC_Os03g42600           (  415) TGTTTTTTTT  1 
LOC_Os03g11734           (  262) TTTTTTTATT  1 
LOC_Os11g36160           (   77) TTTTCTTCAT  1 
LOC_Os09g16330           (  206) TTTTGTTTCT  1 
LOC_Os03g60430           (   71) TTTTTTTATA  1 
LOC_Os03g18790           (   41) TTTTATTTAT  1 
LOC_Os02g20360           (   77) TTCTTTTCCA  1 
LOC_Os09g02270           (  199) TTTTGTTTAA  1 
LOC_Os10g25150           (  170) TTCTTTTAAT  1 
LOC_Os03g28300           (  394) TTTTATTTAA  1 
LOC_Os01g37910           (  389) TTTTATTTCA  1 
LOC_Os05g24140           (  381) TTTGTTTCAT  1 
LOC_Os01g12130           (  109) TTTGTTTCAT  1 
LOC_Os11g42800           (  123) TTCTTTTCTT  1 
LOC_Os12g29220           (  261) TTTTTTTGAA  1 
LOC_Os05g07940           (  245) TTCTCTTTTA  1 
LOC_Os04g58160           (  489) TTTTCTTTGT  1 
LOC_Os02g49720           (  451) TTCTCTTTTA  1 
LOC_Os12g16290           (  203) TTTTTTCTCT  1 
LOC_Os01g53800           (   95) TTATTTTTCA  1 
//

--------------------------------------------------------------------------------

--------------------------------------------------------------------------------
	Motif 2 position-specific scoring matrix
--------------------------------------------------------------------------------
log-odds matrix: alength= 4 w= 10 n= 69231 bayes= 10.4872 E= 9.6e-008 
 -1298  -1298  -1298    179 
 -1298  -1298   -133    167 
  -463    -43  -1298    151 
 -1298  -1298   -133    167 
  -305    -81   -291    149 
 -1298  -1298  -1298    179 
 -1298   -413  -1298    177 
  -164    -81   -391    140 
    65     51   -291    -65 
    57  -1298  -1298     91 
--------------------------------------------------------------------------------

--------------------------------------------------------------------------------
	Motif 2 position-specific probability matrix
--------------------------------------------------------------------------------
letter-probability matrix: alength= 4 w= 10 nsites= 81 E= 9.6e-008 
 0.000000  0.000000  0.000000  1.000000 
 0.000000  0.000000  0.074074  0.925926 
 0.012346  0.160494  0.000000  0.827160 
 0.000000  0.000000  0.074074  0.925926 
 0.037037  0.123457  0.024691  0.814815 
 0.000000  0.000000  0.000000  1.000000 
 0.000000  0.012346  0.000000  0.987654 
 0.098765  0.123457  0.012346  0.765432 
 0.481481  0.308642  0.024691  0.185185 
 0.456790  0.000000  0.000000  0.543210 
--------------------------------------------------------------------------------

--------------------------------------------------------------------------------
	Motif 2 regular expression
--------------------------------------------------------------------------------
TTTTTTTT[AC][TA]
--------------------------------------------------------------------------------




Time 88.45 secs.

********************************************************************************


********************************************************************************
MOTIF  3 MEME	width =  10  sites =  43  llr = 416  E-value = 1.4e-005
********************************************************************************
--------------------------------------------------------------------------------
	Motif 3 Description
--------------------------------------------------------------------------------
Simplified        A  ::7:::7:::
pos.-specific     C  72::a1::84
probability       G  3:3a::1a21
matrix            T  :8:::82::5

         bits    2.4    *   *  
                 2.2    **  *  
                 1.9    **  *  
                 1.7    **  ** 
Relative         1.5 *  **  ** 
Entropy          1.2 *  **  ** 
(13.9 bits)      1.0 ** *** ** 
                 0.7 ****** ** 
                 0.5 **********
                 0.2 **********
                 0.0 ----------

Multilevel           CTAGCTAGCT
consensus            G G      C
sequence                       
                               
--------------------------------------------------------------------------------

--------------------------------------------------------------------------------
	Motif 3 sites sorted by position p-value
--------------------------------------------------------------------------------
Sequence name             Start   P-value               Site 
-------------             ----- ---------            ----------
LOC_Os12g29220              449  1.40e-06 TGATTCCCAC CTAGCTAGCT TTGCTCCTAT
LOC_Os10g28680              441  1.40e-06 CCTCTAGGGC CTAGCTAGCT CGCTTACCTG
LOC_Os09g26370               13  1.40e-06 ATCAGCTTAG CTAGCTAGCT AGCACAATCA
LOC_Os08g07490              421  1.40e-06 TATAGCTAAG CTAGCTAGCT CCACAGCTGT
LOC_Os05g07940               89  1.40e-06 GGATGATGAG CTAGCTAGCT AGCCGTGACA
LOC_Os05g02420              347  1.40e-06 TACTCTCCAG CTAGCTAGCT CGTCGATCGT
LOC_Os04g27190              483  1.40e-06 TATAAAGCAG CTAGCTAGCT AGCTAGCT  
LOC_Os02g51280              323  1.40e-06 GGATTAGCTG CTAGCTAGCT CCTCGCTAGG
LOC_Os02g03570              486  2.25e-06 ACAAGCTAAG CTGGCTAGCT CGCCC     
LOC_Os08g41720              150  3.45e-06 AGCACAGCTA GTAGCTAGCC AATATTCAGA
LOC_Os05g31570              270  3.45e-06 AGGAATATTA GTAGCTAGCC GCGTAGTTTG
LOC_Os03g63760              300  3.45e-06 CAAAGCTAGC GTAGCTAGCT ACTCTTGAAG
LOC_Os02g46460              445  6.07e-06 AGTCGCAGAG CCAGCTAGCC AGCTGCAGCT
LOC_Os01g55150              331  6.07e-06 AGAGCTGCTG CTAGCTGGCT CAGGCTGTCG
LOC_Os01g54890              117  6.07e-06 CTACTGCTCG CTAGCTGGCT GCTCCAACGG
LOC_Os01g36580              441  6.07e-06 TAAATACAGA CTAGCTGGCT CCAACATAAT
LOC_Os07g40300              313  8.59e-06 AAATTGATAG CTAGCTAGGC AAAAAAAAAA
LOC_Os11g31190              127  1.37e-05 CAAGCCTAAG GCAGCTAGCT TAGTTAATTA
LOC_Os08g14990              205  1.37e-05 TGAAATATTT CTGGCTTGCC AATGCAACAA
LOC_Os01g45830              405  1.37e-05 ATCTCGTGCA GTAGCTGGCC TCCATAATCT
LOC_Os04g41570              269  1.96e-05 TTGGGGCGGT GCGGCTAGCC ATTTGACAAG
LOC_Os05g47700              122  2.22e-05 ATCTGCCGGT GTGGCTTGCT GAGTACTGTG
LOC_Os03g03610              315  2.22e-05 GAAGCAAGAC GTGGCTTGCT TGGAGATGAC
LOC_Os01g53800              329  2.22e-05 GCAGCAGTAT CCAGCTTGCC ACTGGTCCGC
LOC_Os06g28124              457  2.39e-05 ATTGGACAAG CTAGCTAGCA ATATAATGCA
LOC_Os04g20164              443  2.39e-05 CATTCCACCA CGAGCTAGCT TCCCAAGTTT
LOC_Os03g01880              380  2.39e-05 CAAGCACAAG CTAGCTAGCA CTACACTGTT
LOC_Os01g42690              364  2.48e-05 CGACAGACAG CTAGCGAGCC AACCTACCAG
LOC_Os07g42160              297  2.84e-05 GAAACAACCC CCAGCTAGGC TAGGCTACTA
LOC_Os01g63460              211  2.84e-05 CGTAACTGAA CTTGCTAGCT GTCGATTGAC
LOC_Os05g36010              374  3.09e-05 TTAGTTTGCA CTAGCTTGGC CTTACAGGGA
LOC_Os09g27220               35  3.45e-05 CAGAGTTGCG GTGGCCAGCC GCCCGGTAGG
LOC_Os04g54474              270  3.45e-05 GAATATGTTT GCAGCTGGCT TATAGCCTGC
LOC_Os12g16290              186  4.61e-05 AGATATTTTG CTGGCTGGCG TCCGTGGTTT
LOC_Os02g32469              332  4.61e-05 GCGCGCAGGC GCAGCTAGGC CGCTCTCTCA
LOC_Os01g12490              379  4.96e-05 CGTCCCTACT CCGGCCAGCC GGGCCGGGGC
LOC_Os03g05910              432  5.23e-05 GCCTTCACTG CTGGCCTGCT GCTCACTCAC
LOC_Os05g51690              122  6.43e-05 AAAGAGAGTG GTAGCTAGGG AAAATTGGCT
LOC_Os09g26310              397  6.86e-05 CGAGTTCTAA CTGGCCAGCG CATCGCGTCA
LOC_Os01g07770              142  6.86e-05 GGTGGAGCAT GTGGCTTGGC TACGCGCAAC
LOC_Os09g21740              159  8.16e-05 GCAAAACGAT CTTGCTAGGT CAGGTCAACC
LOC_Os01g50610              453  8.16e-05 ATAGGCAATG CGAGCCAGCT GATATTTATC
LOC_Os03g28300              409  9.27e-05 TTTAAATTAT GTAGCGTGCC ATAATTGCAT
--------------------------------------------------------------------------------

--------------------------------------------------------------------------------
	Motif 3 block diagrams
--------------------------------------------------------------------------------
SEQUENCE NAME            POSITION P-VALUE  MOTIF DIAGRAM
-------------            ----------------  -------------
LOC_Os12g29220                    1.4e-06  448_[+3]_42
LOC_Os10g28680                    1.4e-06  440_[+3]_50
LOC_Os09g26370                    1.4e-06  12_[+3]_478
LOC_Os08g07490                    1.4e-06  420_[+3]_70
LOC_Os05g07940                    1.4e-06  88_[+3]_402
LOC_Os05g02420                    1.4e-06  346_[+3]_144
LOC_Os04g27190                    1.4e-06  482_[+3]_8
LOC_Os02g51280                    1.4e-06  322_[+3]_168
LOC_Os02g03570                    2.2e-06  485_[+3]_5
LOC_Os08g41720                    3.4e-06  149_[+3]_341
LOC_Os05g31570                    3.4e-06  269_[+3]_221
LOC_Os03g63760                    3.4e-06  299_[+3]_191
LOC_Os02g46460                    6.1e-06  444_[+3]_46
LOC_Os01g55150                    6.1e-06  330_[+3]_160
LOC_Os01g54890                    6.1e-06  116_[+3]_374
LOC_Os01g36580                    6.1e-06  440_[+3]_50
LOC_Os07g40300                    8.6e-06  312_[+3]_178
LOC_Os11g31190                    1.4e-05  126_[+3]_364
LOC_Os08g14990                    1.4e-05  204_[+3]_286
LOC_Os01g45830                    1.4e-05  404_[+3]_86
LOC_Os04g41570                      2e-05  268_[+3]_222
LOC_Os05g47700                    2.2e-05  121_[+3]_369
LOC_Os03g03610                    2.2e-05  314_[+3]_176
LOC_Os01g53800                    2.2e-05  328_[+3]_162
LOC_Os06g28124                    2.4e-05  456_[+3]_34
LOC_Os04g20164                    2.4e-05  442_[+3]_48
LOC_Os03g01880                    2.4e-05  379_[+3]_111
LOC_Os01g42690                    2.5e-05  363_[+3]_127
LOC_Os07g42160                    2.8e-05  296_[+3]_194
LOC_Os01g63460                    2.8e-05  210_[+3]_280
LOC_Os05g36010                    3.1e-05  373_[+3]_117
LOC_Os09g27220                    3.4e-05  34_[+3]_456
LOC_Os04g54474                    3.4e-05  269_[+3]_221
LOC_Os12g16290                    4.6e-05  185_[+3]_305
LOC_Os02g32469                    4.6e-05  331_[+3]_159
LOC_Os01g12490                      5e-05  378_[+3]_112
LOC_Os03g05910                    5.2e-05  431_[+3]_59
LOC_Os05g51690                    6.4e-05  121_[+3]_369
LOC_Os09g26310                    6.9e-05  396_[+3]_94
LOC_Os01g07770                    6.9e-05  141_[+3]_349
LOC_Os09g21740                    8.2e-05  158_[+3]_332
LOC_Os01g50610                    8.2e-05  452_[+3]_38
LOC_Os03g28300                    9.3e-05  408_[+3]_82
--------------------------------------------------------------------------------

--------------------------------------------------------------------------------
	Motif 3 in BLOCKS format
--------------------------------------------------------------------------------
BL   MOTIF 3 width=10 seqs=43
LOC_Os12g29220           (  449) CTAGCTAGCT  1 
LOC_Os10g28680           (  441) CTAGCTAGCT  1 
LOC_Os09g26370           (   13) CTAGCTAGCT  1 
LOC_Os08g07490           (  421) CTAGCTAGCT  1 
LOC_Os05g07940           (   89) CTAGCTAGCT  1 
LOC_Os05g02420           (  347) CTAGCTAGCT  1 
LOC_Os04g27190           (  483) CTAGCTAGCT  1 
LOC_Os02g51280           (  323) CTAGCTAGCT  1 
LOC_Os02g03570           (  486) CTGGCTAGCT  1 
LOC_Os08g41720           (  150) GTAGCTAGCC  1 
LOC_Os05g31570           (  270) GTAGCTAGCC  1 
LOC_Os03g63760           (  300) GTAGCTAGCT  1 
LOC_Os02g46460           (  445) CCAGCTAGCC  1 
LOC_Os01g55150           (  331) CTAGCTGGCT  1 
LOC_Os01g54890           (  117) CTAGCTGGCT  1 
LOC_Os01g36580           (  441) CTAGCTGGCT  1 
LOC_Os07g40300           (  313) CTAGCTAGGC  1 
LOC_Os11g31190           (  127) GCAGCTAGCT  1 
LOC_Os08g14990           (  205) CTGGCTTGCC  1 
LOC_Os01g45830           (  405) GTAGCTGGCC  1 
LOC_Os04g41570           (  269) GCGGCTAGCC  1 
LOC_Os05g47700           (  122) GTGGCTTGCT  1 
LOC_Os03g03610           (  315) GTGGCTTGCT  1 
LOC_Os01g53800           (  329) CCAGCTTGCC  1 
LOC_Os06g28124           (  457) CTAGCTAGCA  1 
LOC_Os04g20164           (  443) CGAGCTAGCT  1 
LOC_Os03g01880           (  380) CTAGCTAGCA  1 
LOC_Os01g42690           (  364) CTAGCGAGCC  1 
LOC_Os07g42160           (  297) CCAGCTAGGC  1 
LOC_Os01g63460           (  211) CTTGCTAGCT  1 
LOC_Os05g36010           (  374) CTAGCTTGGC  1 
LOC_Os09g27220           (   35) GTGGCCAGCC  1 
LOC_Os04g54474           (  270) GCAGCTGGCT  1 
LOC_Os12g16290           (  186) CTGGCTGGCG  1 
LOC_Os02g32469           (  332) GCAGCTAGGC  1 
LOC_Os01g12490           (  379) CCGGCCAGCC  1 
LOC_Os03g05910           (  432) CTGGCCTGCT  1 
LOC_Os05g51690           (  122) GTAGCTAGGG  1 
LOC_Os09g26310           (  397) CTGGCCAGCG  1 
LOC_Os01g07770           (  142) GTGGCTTGGC  1 
LOC_Os09g21740           (  159) CTTGCTAGGT  1 
LOC_Os01g50610           (  453) CGAGCCAGCT  1 
LOC_Os03g28300           (  409) GTAGCGTGCC  1 
//

--------------------------------------------------------------------------------

--------------------------------------------------------------------------------
	Motif 3 position-specific scoring matrix
--------------------------------------------------------------------------------
log-odds matrix: alength= 4 w= 10 n= 69231 bayes= 11.458 E= 1.4e-005 
 -1207    164     81  -1207 
 -1207    -22   -200    140 
   118  -1207     46   -264 
 -1207  -1207    242  -1207 
 -1207    221  -1207  -1207 
 -1207    -90   -200    153 
   113  -1207    -42    -64 
 -1207  -1207    242  -1207 
 -1207    195    -19  -1207 
  -272     78   -142     82 
--------------------------------------------------------------------------------

--------------------------------------------------------------------------------
	Motif 3 position-specific probability matrix
--------------------------------------------------------------------------------
letter-probability matrix: alength= 4 w= 10 nsites= 43 E= 1.4e-005 
 0.000000  0.674419  0.325581  0.000000 
 0.000000  0.186047  0.046512  0.767442 
 0.697674  0.000000  0.255814  0.046512 
 0.000000  0.000000  1.000000  0.000000 
 0.000000  1.000000  0.000000  0.000000 
 0.000000  0.116279  0.046512  0.837209 
 0.674419  0.000000  0.139535  0.186047 
 0.000000  0.000000  1.000000  0.000000 
 0.000000  0.837209  0.162791  0.000000 
 0.046512  0.372093  0.069767  0.511628 
--------------------------------------------------------------------------------

--------------------------------------------------------------------------------
	Motif 3 regular expression
--------------------------------------------------------------------------------
[CG]T[AG]GCTAGC[TC]
--------------------------------------------------------------------------------




Time 132.24 secs.

********************************************************************************


********************************************************************************
MOTIF  4 MEME	width =  10  sites =  39  llr = 392  E-value = 1.4e-008
********************************************************************************
--------------------------------------------------------------------------------
	Motif 4 Description
--------------------------------------------------------------------------------
Simplified        A  :::1::::::
pos.-specific     C  62a45451a6
probability       G  38:53659:4
matrix            T  1:::2:::::

         bits    2.4           
                 2.2   *     * 
                 1.9   *    ** 
                 1.7  **    ** 
Relative         1.5  **  * ***
Entropy          1.2  **  *****
(14.5 bits)      1.0 **** *****
                 0.7 **********
                 0.5 **********
                 0.2 **********
                 0.0 ----------

Multilevel           CGCGCGCGCC
consensus            GC CGCG  G
sequence                       
                               
--------------------------------------------------------------------------------

--------------------------------------------------------------------------------
	Motif 4 sites sorted by position p-value
--------------------------------------------------------------------------------
Sequence name             Start   P-value               Site 
-------------             ----- ---------            ----------
LOC_Os11g34460              364  2.26e-07 TTTTGCCGCC CGCGCGGGCC CCACCCCCAC
LOC_Os06g16330              347  9.46e-07 GGTGTGACTG CGCGCGCGCG CGGCCAAGAC
LOC_Os03g51030              482  9.46e-07 CGACCCCATC CGCGCCGGCC GGTGATCGG 
LOC_Os01g55150              221  9.46e-07 ACTTTGTTCC CGCGCGGGCG CCGCATGCAA
LOC_Os09g21740              431  2.09e-06 GAGACCCACC CGCCCGCGCG CGATCCCTTC
LOC_Os01g53800              395  2.09e-06 CCAGATACAG CGCGCCCGCG GCACGGAAGC
LOC_Os01g42690              411  2.09e-06 TTACCGGGTG CGCGCCCGCG CGATTCACAT
LOC_Os08g31510              368  2.71e-06 AACCGCGGCC CGCGGCGGCC CAGGGAATAA
LOC_Os08g07490              481  2.71e-06 TAGCTCCGGC CGCCGGCGCC GCCGCTCGCC
LOC_Os11g08210              130  3.33e-06 ACATCCCCAA GGCCCGGGCC CACCACATGA
LOC_Os02g32469              188  3.33e-06 CCCCGGTGGT GGCCCGCGCC GTGGGCACAC
LOC_Os04g58390              139  4.42e-06 CGTCCATCTC CGCGGCCGCG TCACACCCAC
LOC_Os01g67360              479  4.42e-06 ATCCGATACT CGCCGCCGCC GCAGCGCGCG
LOC_Os10g14920              445  5.91e-06 AAATCTGGTT GGCCGGGGCC ATGCAGGCTG
LOC_Os03g11734               20  5.91e-06 ACCGACTGGC GGCCGGCGCC CTTAGCCGAG
LOC_Os01g12490              390  5.91e-06 CGGCCAGCCG GGCCGGGGCC CCCAACCCAA
LOC_Os02g51280              409  6.17e-06 CTTCCTCCTC CCCGCGCGCC TTATCCTCCT
LOC_Os05g31570              288  7.89e-06 CCGCGTAGTT TGCGCGGGCC ACCATGCTAG
LOC_Os09g16330              485  8.45e-06 ACCGGCGGCG GGCGGCGGCG GGATCG    
LOC_Os03g41330               42  9.55e-06 GATCCGGCTC CCCCCGCGCC GGTCGCCCGA
LOC_Os01g46810              461  1.02e-05 CTGGCTCCCA CGCACGCGCC AGCTCAGGCC
LOC_Os10g39936              467  1.24e-05 GCACCCAGAG CGCGTCGGCG TCGCGCACAC
LOC_Os08g14990              355  1.24e-05 ATTGTGGTCG TGCGCCGGCC AGGTGAGATG
LOC_Os03g03610              362  1.24e-05 TTGATGAGCG CGCCTCCGCC GCCGCAACCG
LOC_Os01g50610               86  1.48e-05 TCCCCCCTCT CCCCCCCGCC GCTGCGCTGT
LOC_Os10g31850              481  1.63e-05 AAAACGCGGC CGCACGCGCG CAAGCTCCCC
LOC_Os01g11570              434  1.87e-05 ACCAAACTGC GCCGCCGGCC GCCGGAATAT
LOC_Os04g42620              478  2.20e-05 TTGCCGCCTT CGCGCCCCCC GTGTTTATAT
LOC_Os03g01880              446  2.20e-05 CAAGATAGGT CGCCCGGCCC CAGACATCCT
LOC_Os01g54890              480  2.57e-05 GAGCTAGCGC GCCCCGCGCG TACAGCCCCG
LOC_Os05g07940                1  2.79e-05          . TGCGGCGGCG AGAGAGGAAC
LOC_Os05g51690              428  2.98e-05 CACTGTAGAA TGCGTGGGCC CATGGACCGC
LOC_Os01g37910              424  3.55e-05 ATTTACAGCT GGCGGGGCCC ACCACCCCCA
LOC_Os04g41570               90  3.80e-05 GGCTTGCTGC TGCGTGGGCG CGTCCGTTGC
LOC_Os04g58160               59  4.52e-05 CCCATTTGCA GGCGGCCCCC CGCACAGTAC
LOC_Os01g50622              464  4.52e-05 TGCAGCCAAC CGCATCCGCC ATAAAAGCCG
LOC_Os08g28170              204  4.81e-05 AGCCCTGGTT GCCCTGGGCC CTTAAGACAT
LOC_Os08g42530              474  4.97e-05 CCCCTTCTCC CCCACGCGCG AATCGCCCAA
LOC_Os05g37950              410  5.34e-05 CCAATCCCGG CCCCTCCGCG AGCCTCTCGG
--------------------------------------------------------------------------------

--------------------------------------------------------------------------------
	Motif 4 block diagrams
--------------------------------------------------------------------------------
SEQUENCE NAME            POSITION P-VALUE  MOTIF DIAGRAM
-------------            ----------------  -------------
LOC_Os11g34460                    2.3e-07  363_[+4]_127
LOC_Os06g16330                    9.5e-07  346_[+4]_144
LOC_Os03g51030                    9.5e-07  481_[+4]_9
LOC_Os01g55150                    9.5e-07  220_[+4]_270
LOC_Os09g21740                    2.1e-06  430_[+4]_60
LOC_Os01g53800                    2.1e-06  394_[+4]_96
LOC_Os01g42690                    2.1e-06  410_[+4]_80
LOC_Os08g31510                    2.7e-06  367_[+4]_123
LOC_Os08g07490                    2.7e-06  480_[+4]_10
LOC_Os11g08210                    3.3e-06  129_[+4]_361
LOC_Os02g32469                    3.3e-06  187_[+4]_303
LOC_Os04g58390                    4.4e-06  138_[+4]_352
LOC_Os01g67360                    4.4e-06  478_[+4]_12
LOC_Os10g14920                    5.9e-06  444_[+4]_46
LOC_Os03g11734                    5.9e-06  19_[+4]_471
LOC_Os01g12490                    5.9e-06  389_[+4]_101
LOC_Os02g51280                    6.2e-06  408_[+4]_82
LOC_Os05g31570                    7.9e-06  287_[+4]_203
LOC_Os09g16330                    8.5e-06  484_[+4]_6
LOC_Os03g41330                    9.6e-06  41_[+4]_449
LOC_Os01g46810                      1e-05  460_[+4]_30
LOC_Os10g39936                    1.2e-05  466_[+4]_24
LOC_Os08g14990                    1.2e-05  354_[+4]_136
LOC_Os03g03610                    1.2e-05  361_[+4]_129
LOC_Os01g50610                    1.5e-05  85_[+4]_405
LOC_Os10g31850                    1.6e-05  480_[+4]_10
LOC_Os01g11570                    1.9e-05  433_[+4]_57
LOC_Os04g42620                    2.2e-05  477_[+4]_13
LOC_Os03g01880                    2.2e-05  445_[+4]_45
LOC_Os01g54890                    2.6e-05  479_[+4]_11
LOC_Os05g07940                    2.8e-05  [+4]_490
LOC_Os05g51690                      3e-05  427_[+4]_63
LOC_Os01g37910                    3.5e-05  423_[+4]_67
LOC_Os04g41570                    3.8e-05  89_[+4]_401
LOC_Os04g58160                    4.5e-05  58_[+4]_432
LOC_Os01g50622                    4.5e-05  463_[+4]_27
LOC_Os08g28170                    4.8e-05  203_[+4]_287
LOC_Os08g42530                      5e-05  473_[+4]_17
LOC_Os05g37950                    5.3e-05  409_[+4]_81
--------------------------------------------------------------------------------

--------------------------------------------------------------------------------
	Motif 4 in BLOCKS format
--------------------------------------------------------------------------------
BL   MOTIF 4 width=10 seqs=39
LOC_Os11g34460           (  364) CGCGCGGGCC  1 
LOC_Os06g16330           (  347) CGCGCGCGCG  1 
LOC_Os03g51030           (  482) CGCGCCGGCC  1 
LOC_Os01g55150           (  221) CGCGCGGGCG  1 
LOC_Os09g21740           (  431) CGCCCGCGCG  1 
LOC_Os01g53800           (  395) CGCGCCCGCG  1 
LOC_Os01g42690           (  411) CGCGCCCGCG  1 
LOC_Os08g31510           (  368) CGCGGCGGCC  1 
LOC_Os08g07490           (  481) CGCCGGCGCC  1 
LOC_Os11g08210           (  130) GGCCCGGGCC  1 
LOC_Os02g32469           (  188) GGCCCGCGCC  1 
LOC_Os04g58390           (  139) CGCGGCCGCG  1 
LOC_Os01g67360           (  479) CGCCGCCGCC  1 
LOC_Os10g14920           (  445) GGCCGGGGCC  1 
LOC_Os03g11734           (   20) GGCCGGCGCC  1 
LOC_Os01g12490           (  390) GGCCGGGGCC  1 
LOC_Os02g51280           (  409) CCCGCGCGCC  1 
LOC_Os05g31570           (  288) TGCGCGGGCC  1 
LOC_Os09g16330           (  485) GGCGGCGGCG  1 
LOC_Os03g41330           (   42) CCCCCGCGCC  1 
LOC_Os01g46810           (  461) CGCACGCGCC  1 
LOC_Os10g39936           (  467) CGCGTCGGCG  1 
LOC_Os08g14990           (  355) TGCGCCGGCC  1 
LOC_Os03g03610           (  362) CGCCTCCGCC  1 
LOC_Os01g50610           (   86) CCCCCCCGCC  1 
LOC_Os10g31850           (  481) CGCACGCGCG  1 
LOC_Os01g11570           (  434) GCCGCCGGCC  1 
LOC_Os04g42620           (  478) CGCGCCCCCC  1 
LOC_Os03g01880           (  446) CGCCCGGCCC  1 
LOC_Os01g54890           (  480) GCCCCGCGCG  1 
LOC_Os05g07940           (    1) TGCGGCGGCG  1 
LOC_Os05g51690           (  428) TGCGTGGGCC  1 
LOC_Os01g37910           (  424) GGCGGGGCCC  1 
LOC_Os04g41570           (   90) TGCGTGGGCG  1 
LOC_Os04g58160           (   59) GGCGGCCCCC  1 
LOC_Os01g50622           (  464) CGCATCCGCC  1 
LOC_Os08g28170           (  204) GCCCTGGGCC  1 
LOC_Os08g42530           (  474) CCCACGCGCG  1 
LOC_Os05g37950           (  410) CCCCTCCGCG  1 
//

--------------------------------------------------------------------------------

--------------------------------------------------------------------------------
	Motif 4 position-specific scoring matrix
--------------------------------------------------------------------------------
log-odds matrix: alength= 4 w= 10 n= 69231 bayes= 11.5057 E= 1.4e-008 
 -1193    145     60   -118 
 -1193     -8    209  -1193 
 -1193    221  -1193  -1193 
  -158     83    146  -1193 
 -1193    131     60    -69 
 -1193    101    160  -1193 
 -1193    131    131  -1193 
 -1193   -108    227  -1193 
 -1193    221  -1193  -1193 
 -1193    157     95  -1193 
--------------------------------------------------------------------------------

--------------------------------------------------------------------------------
	Motif 4 position-specific probability matrix
--------------------------------------------------------------------------------
letter-probability matrix: alength= 4 w= 10 nsites= 39 E= 1.4e-008 
 0.000000  0.589744  0.282051  0.128205 
 0.000000  0.205128  0.794872  0.000000 
 0.000000  1.000000  0.000000  0.000000 
 0.102564  0.384615  0.512821  0.000000 
 0.000000  0.538462  0.282051  0.179487 
 0.000000  0.435897  0.564103  0.000000 
 0.000000  0.538462  0.461538  0.000000 
 0.000000  0.102564  0.897436  0.000000 
 0.000000  1.000000  0.000000  0.000000 
 0.000000  0.641026  0.358974  0.000000 
--------------------------------------------------------------------------------

--------------------------------------------------------------------------------
	Motif 4 regular expression
--------------------------------------------------------------------------------
[CG][GC]C[GC][CG][GC][CG]GC[CG]
--------------------------------------------------------------------------------




Time 174.92 secs.

********************************************************************************


********************************************************************************
SUMMARY OF MOTIFS
********************************************************************************

--------------------------------------------------------------------------------
	Combined block diagrams: non-overlapping sites with p-value < 0.0001
--------------------------------------------------------------------------------
SEQUENCE NAME            COMBINED P-VALUE  MOTIF DIAGRAM
-------------            ----------------  -------------
LOC_Os01g05810                   6.06e-02  212_[+2(4.45e-06)]_278
LOC_Os01g07770                   3.44e-01  141_[+3(6.86e-05)]_349
LOC_Os01g11570                   2.63e-04  188_[+1(7.62e-05)]_120_\
    [+2(4.45e-06)]_105_[+4(1.87e-05)]_57
LOC_Os01g11620                   3.46e-02  233_[+2(4.45e-06)]_257
LOC_Os01g12130                   1.73e-01  79_[+1(6.35e-05)]_411
LOC_Os01g12490                   5.58e-06  21_[+2(1.98e-05)]_229_\
    [+1(1.19e-05)]_48_[+4(3.55e-05)]_50_[+3(4.96e-05)]_1_[+4(5.91e-06)]_101
LOC_Os01g20160                   6.23e-01  500
LOC_Os01g24430                   2.27e-01  500
LOC_Os01g25710                   9.52e-02  3_[+2(4.49e-05)]_487
LOC_Os01g25720                   2.08e-01  204_[+1(4.77e-05)]_3_[+1(6.67e-05)]_\
    273
LOC_Os01g36580                   7.30e-03  132_[+2(1.98e-05)]_298_\
    [+3(6.07e-06)]_50
LOC_Os01g37470                   4.26e-01  500
LOC_Os01g37910                   2.94e-04  130_[+1(7.44e-06)]_283_\
    [+4(3.55e-05)]_67
LOC_Os01g39110                   6.80e-03  307_[+2(1.23e-05)]_115_\
    [+1(2.10e-05)]_58
LOC_Os01g39770                   1.31e-02  39_[+2(5.67e-05)]_155_\
    [+2(4.45e-06)]_286
LOC_Os01g42690                   6.01e-04  363_[+3(2.48e-05)]_37_\
    [+4(2.09e-06)]_80
LOC_Os01g45830                   4.96e-03  142_[+1(2.82e-05)]_252_\
    [+3(1.37e-05)]_86
LOC_Os01g46810                   6.60e-03  189_[+2(7.69e-05)]_261_\
    [+4(1.02e-05)]_30
LOC_Os01g50610                   4.10e-04  63_[+4(7.27e-05)]_12_[+4(1.48e-05)]_\
    61_[+1(7.44e-06)]_71_[+4(6.87e-05)]_35_[+1(7.44e-06)]_160_[+3(8.16e-05)]_\
    38
LOC_Os01g50622                   2.04e-02  305_[+1(2.82e-05)]_148_\
    [+4(4.52e-05)]_27
LOC_Os01g53800                   5.59e-04  328_[+3(2.22e-05)]_56_\
    [+4(2.09e-06)]_65_[+4(5.34e-05)]_11_[+4(1.24e-05)]
LOC_Os01g54890                   4.79e-03  116_[+3(6.07e-06)]_353_\
    [+4(2.57e-05)]_11
LOC_Os01g55150                   7.43e-05  220_[+4(9.46e-07)]_100_\
    [+3(6.07e-06)]_93_[+3(8.16e-05)]_57
LOC_Os01g58910                   9.15e-01  500
LOC_Os01g63460                   9.07e-03  210_[+3(2.84e-05)]_168_\
    [+2(5.67e-05)]_102
LOC_Os01g65080                   6.95e-01  500
LOC_Os01g65130                   4.46e-01  148_[+2(9.11e-05)]_342
LOC_Os01g65169                   1.86e-03  42_[+2(7.59e-06)]_432_\
    [+1(1.64e-05)]_6
LOC_Os01g67360                   4.51e-04  441_[+1(7.44e-06)]_27_\
    [+4(4.42e-06)]_12
LOC_Os01g69920                   2.46e-03  47_[+2(1.23e-05)]_37_[+1(3.34e-05)]_\
    396
LOC_Os01g74450                   1.63e-03  85_[+1(7.44e-06)]_19_[+2(7.59e-06)]_\
    35_[+1(1.19e-05)]_113_[+1(4.04e-05)]_208
LOC_Os02g03570                   6.26e-04  124_[+4(9.35e-05)]_172_\
    [+2(9.11e-05)]_169_[+3(2.25e-06)]_5
LOC_Os02g03840                   9.39e-02  439_[+2(9.89e-05)]_51
LOC_Os02g20360                   5.44e-02  500
LOC_Os02g32469                   5.68e-03  133_[+4(8.48e-05)]_21_\
    [+4(6.01e-05)]_13_[+4(3.33e-06)]_134_[+3(4.61e-05)]_159
LOC_Os02g46460                   9.90e-04  276_[+1(7.44e-06)]_158_\
    [+3(6.07e-06)]_46
LOC_Os02g49720                   7.70e-02  285_[+1(2.10e-05)]_205
LOC_Os02g51280                   3.14e-04  322_[+3(1.40e-06)]_39_\
    [+4(5.37e-06)]_27_[+4(6.17e-06)]_82
LOC_Os03g01880                   2.88e-04  300_[+3(5.58e-05)]_69_\
    [+3(2.39e-05)]_30_[+3(4.96e-05)]_16_[+4(2.20e-05)]_23_[+3(3.45e-05)]_12
LOC_Os03g03610                   5.30e-04  35_[+2(9.89e-05)]_269_\
    [+3(2.22e-05)]_37_[+4(1.24e-05)]_19_[+4(7.48e-05)]_100
LOC_Os03g04660                   8.66e-03  39_[+1(1.64e-05)]_300_\
    [+2(1.23e-05)]_141
LOC_Os03g05910                   1.45e-01  431_[+3(5.23e-05)]_59
LOC_Os03g11734                   2.48e-04  19_[+4(5.91e-06)]_108_\
    [+1(4.04e-05)]_353
LOC_Os03g18790                   2.02e-02  153_[+1(8.60e-05)]_337
LOC_Os03g20870                   8.03e-02  407_[+1(7.44e-06)]_83
LOC_Os03g22620                   1.70e-02  34_[+1(7.44e-06)]_241_\
    [+1(1.64e-05)]_205
LOC_Os03g28300                   1.39e-02  219_[+1(6.35e-05)]_179_\
    [+3(9.27e-05)]_82
LOC_Os03g41330                   7.92e-05  41_[+4(9.55e-06)]_79_[+2(1.56e-05)]_\
    162_[+1(7.44e-06)]_42_[+4(8.48e-05)]_136
LOC_Os03g42600                   5.50e-01  500
LOC_Os03g46570                   2.88e-03  250_[+1(1.19e-05)]_146_\
    [+2(4.49e-05)]_84
LOC_Os03g51030                   2.45e-02  481_[+4(9.46e-07)]_9
LOC_Os03g60430                   9.46e-02  348_[+1(3.34e-05)]_142
LOC_Os03g63760                   2.34e-03  299_[+3(3.45e-06)]_119_\
    [+2(5.07e-05)]_62
LOC_Os04g01960                   6.52e-02  294_[+2(6.96e-05)]_38_\
    [+1(4.04e-05)]_148
LOC_Os04g09604                   1.95e-02  166_[+2(7.59e-06)]_324
LOC_Os04g16450                   9.57e-01  500
LOC_Os04g20164                   6.65e-02  442_[+3(2.39e-05)]_48
LOC_Os04g27190                   3.75e-03  18_[+2(6.96e-05)]_454_\
    [+3(1.40e-06)]_8
LOC_Os04g35790                   3.56e-03  110_[+2(9.11e-05)]_284_\
    [+1(1.64e-05)]_26_[+2(9.11e-05)]_33_[+2(4.45e-06)]_7
LOC_Os04g41570                   2.29e-03  89_[+4(3.80e-05)]_5_[+3(9.76e-05)]_\
    154_[+3(1.96e-05)]_222
LOC_Os04g42620                   1.04e-02  59_[+1(8.60e-05)]_408_\
    [+4(2.20e-05)]_13
LOC_Os04g51880                   1.43e-03  100_[+2(4.45e-06)]_32_\
    [+1(7.44e-06)]_348
LOC_Os04g51980                   1.49e-02  257_[+1(2.10e-05)]_98_\
    [+2(1.56e-05)]_125
LOC_Os04g52390                   3.36e-02  155_[+1(7.44e-06)]_335
LOC_Os04g54474                   6.70e-02  239_[+3(5.58e-05)]_20_\
    [+3(3.45e-05)]_221
LOC_Os04g58160                   8.46e-03  58_[+4(4.52e-05)]_210_\
    [+1(4.04e-05)]_6_[+1(4.04e-05)]_196
LOC_Os04g58390                   6.32e-04  57_[+2(6.96e-05)]_71_[+4(4.42e-06)]_\
    84_[+1(7.62e-05)]_258
LOC_Os04g58710                   1.46e-02  430_[+1(1.64e-05)]_60
LOC_Os05g02420                   8.01e-03  346_[+3(1.40e-06)]_144
LOC_Os05g07740                   9.79e-01  500
LOC_Os05g07940                   3.83e-04  [+4(2.79e-05)]_78_[+3(1.40e-06)]_48_\
    [+3(1.37e-05)]_344
LOC_Os05g12320                   1.93e-01  380_[+1(3.34e-05)]_110
LOC_Os05g14240                   8.09e-01  500
LOC_Os05g24140                   3.77e-01  500
LOC_Os05g31570                   4.53e-06  95_[+4(4.97e-05)]_125_\
    [+1(1.64e-05)]_29_[+3(3.45e-06)]_8_[+4(7.89e-06)]_36_[+3(4.16e-05)]_157
LOC_Os05g36010                   4.93e-03  315_[+2(7.69e-05)]_48_\
    [+3(3.09e-05)]_117
LOC_Os05g37950                   1.77e-04  183_[+2(4.45e-06)]_109_\
    [+1(2.82e-05)]_97_[+4(5.34e-05)]_81
LOC_Os05g40010                   5.42e-01  500
LOC_Os05g47700                   6.32e-02  121_[+3(2.22e-05)]_369
LOC_Os05g47790                   1.41e-01  412_[+2(1.56e-05)]_78
LOC_Os05g51610                   1.70e-01  500
LOC_Os05g51690                   2.15e-02  121_[+3(6.43e-05)]_296_\
    [+4(2.98e-05)]_63
LOC_Os06g09350                   7.40e-02  245_[+1(4.77e-05)]_245
LOC_Os06g16330                   2.73e-04  63_[+1(7.44e-06)]_223_\
    [+4(1.48e-05)]_17_[+4(2.57e-05)]_13_[+4(9.46e-07)]_144
LOC_Os06g28124                   1.25e-01  456_[+3(2.39e-05)]_34
LOC_Os06g48180                   6.81e-02  241_[+4(9.87e-05)]_249
LOC_Os07g05360                   1.84e-03  250_[+2(6.96e-05)]_199_\
    [+1(7.44e-06)]_31
LOC_Os07g15370                   3.13e-02  358_[+2(7.59e-06)]_132
LOC_Os07g33480                   3.01e-02  60_[+2(1.98e-05)]_206_\
    [+2(4.45e-06)]_214
LOC_Os07g40300                   1.52e-04  225_[+1(1.19e-05)]_77_\
    [+3(8.59e-06)]_[+1(7.44e-06)]_135_[+2(2.76e-05)]_23
LOC_Os07g41280                   1.12e-02  96_[+1(8.60e-05)]_55_[+1(8.60e-05)]_\
    172_[+2(7.59e-06)]_106_[+1(4.77e-05)]_31
LOC_Os07g42160                   4.81e-05  139_[+2(5.07e-05)]_147_\
    [+3(2.84e-05)]_162_[+4(9.46e-07)]_[+4(9.46e-07)]_12
LOC_Os07g45570                   3.96e-01  500
LOC_Os07g46950                   5.80e-03  163_[+1(7.44e-06)]_33_\
    [+2(1.23e-05)]_129_[+1(8.60e-05)]_145
LOC_Os07g49360                   5.92e-01  500
LOC_Os08g02070                   1.99e-01  500
LOC_Os08g07490                   2.06e-04  323_[+3(1.96e-05)]_11_\
    [+3(7.23e-05)]_66_[+3(1.40e-06)]_50_[+4(2.71e-06)]_10
LOC_Os08g07970                   1.29e-01  500
LOC_Os08g14990                   9.83e-04  204_[+3(1.37e-05)]_140_\
    [+4(1.24e-05)]_136
LOC_Os08g15050                   6.66e-01  500
LOC_Os08g28170                   1.48e-02  203_[+4(4.81e-05)]_14_\
    [+2(7.69e-05)]_263
LOC_Os08g31510                   6.30e-04  279_[+1(4.04e-05)]_78_\
    [+4(2.71e-06)]_123
LOC_Os08g41720                   3.88e-02  149_[+3(3.45e-06)]_341
LOC_Os08g42530                   8.25e-05  151_[+2(7.69e-05)]_103_\
    [+2(1.23e-05)]_81_[+1(7.44e-06)]_108_[+4(4.97e-05)]_17
LOC_Os08g44360                   1.96e-02  155_[+2(3.68e-05)]_1_[+1(5.76e-05)]_\
    324
LOC_Os08g44760                   4.81e-01  500
LOC_Os09g02270                   2.46e-02  269_[+1(5.76e-05)]_221
LOC_Os09g16330                   1.88e-03  484_[+4(8.45e-06)]_6
LOC_Os09g17329                   7.03e-01  500
LOC_Os09g21740                   3.32e-06  70_[+2(2.99e-05)]_78_[+3(8.16e-05)]_\
    131_[+1(7.44e-06)]_39_[+4(6.01e-05)]_72_[+4(2.09e-06)]_60
LOC_Os09g23300                   4.18e-01  500
LOC_Os09g25690                   7.67e-02  81_[+2(3.68e-05)]_409
LOC_Os09g26310                   1.60e-02  281_[+1(8.60e-05)]_105_\
    [+3(6.86e-05)]_94
LOC_Os09g26370                   1.13e-04  12_[+3(1.40e-06)]_84_[+2(1.23e-05)]_\
    384
LOC_Os09g27220                   5.43e-03  34_[+3(3.45e-05)]_244_\
    [+2(5.92e-05)]_202
LOC_Os09g37710                   4.40e-02  112_[+1(2.82e-05)]_244_\
    [+1(6.35e-05)]_124
LOC_Os10g14920                   2.05e-02  444_[+4(5.91e-06)]_46
LOC_Os10g22050                   8.07e-03  120_[+2(4.49e-05)]_39_\
    [+1(1.19e-05)]_321
LOC_Os10g25010                   6.60e-02  45_[+1(6.35e-05)]_445
LOC_Os10g25150                   3.14e-01  500
LOC_Os10g28680                   2.10e-05  313_[+2(4.45e-06)]_117_\
    [+3(1.40e-06)]_50
LOC_Os10g31850                   2.33e-03  425_[+1(7.44e-06)]_8_[+1(1.19e-05)]_\
    27_[+4(1.63e-05)]_10
LOC_Os10g37240                   4.78e-01  500
LOC_Os10g39936                   4.85e-02  466_[+4(1.24e-05)]_24
LOC_Os10g40600                   7.42e-01  500
LOC_Os11g08210                   2.68e-02  129_[+4(3.33e-06)]_239_\
    [+4(1.48e-05)]_112
LOC_Os11g20020                   4.82e-01  500
LOC_Os11g25160                   7.09e-03  24_[+1(1.19e-05)]_364_\
    [+2(1.23e-05)]_92
LOC_Os11g26390                   4.13e-01  326_[+2(5.67e-05)]_67_\
    [+2(5.67e-05)]_87
LOC_Os11g31190                   1.89e-02  126_[+3(1.37e-05)]_117_\
    [+1(6.67e-05)]_237
LOC_Os11g34460                   3.07e-05  33_[+2(9.11e-05)]_123_\
    [+1(1.64e-05)]_163_[+4(7.27e-05)]_14_[+4(2.26e-07)]_103_[+4(3.07e-05)]_14
LOC_Os11g36160                   1.15e-02  437_[+1(1.19e-05)]_53
LOC_Os11g41600                   1.28e-01  114_[+2(7.69e-05)]_376
LOC_Os11g42800                   2.09e-01  500
LOC_Os11g47460                   4.95e-02  305_[+2(1.23e-05)]_185
LOC_Os12g16080                   2.20e-01  500
LOC_Os12g16290                   4.76e-02  185_[+3(4.61e-05)]_305
LOC_Os12g29220                   1.92e-04  360_[+1(1.19e-05)]_78_\
    [+3(1.40e-06)]_42
LOC_Os12g32360                   4.60e-03  168_[+1(3.34e-05)]_186_\
    [+2(1.98e-05)]_126
LOC_Os12g35350                   1.34e-01  302_[+1(1.64e-05)]_117_\
    [+1(2.10e-05)]_61
LOC_Os12g38750                   2.39e-01  500
--------------------------------------------------------------------------------

********************************************************************************


********************************************************************************
Stopped because motif E-value > 5.00e-02.
********************************************************************************

CPU: dtss-MacBook-Pro-2.local

********************************************************************************
