gene	r.logFC	CR	TR	s.logFC	CS	TS	descr	family	tcs
ChrSy.fgenesh.mRNA.25	1.50094258936574	10.0336975448096	26.7423150206052	-1.37344201628036	4.96998981815754	1.89944149570811	expressed protein	NA	NA
LOC_Os01g02400	0.846155534377637	1.46276541700139	2.48925303636424	-0.652563349974358	4.23653042699545	2.63554691649193	protein kinase domain containing protein, expressed	NA	NA
LOC_Os01g03690	0.83113550454192	3.81856339306753	6.40390625436313	-0.480410429442882	3.77457193113862	2.6520112188486	TKL_IRAK_DUF26-lg.1 - DUF26 kinases have homology to DUF26 containing loci, expressed	NA	NA
LOC_Os01g03940	1.76757616660044	5.2230357813121	16.7378124573601	-0.656521672609101	16.5070223073588	10.2434856126169	expressed protein	NA	NA
LOC_Os01g08460	-1.19842660088909	10.7992024587109	4.45531679644281	0.370271967032759	53.9671862902153	68.4204398371981	TMS membrane protein/tumour differentially expressed protein, putative, expressed	NA	NA
LOC_Os01g09620	0.756590081635387	27.1488980946348	43.1662975222868	-0.75769678414748	16.8289659469095	9.77998693798047	zinc finger/CCCH transcription factor, putative, expressed	C3H	NA
LOC_Os01g09640	1.23129407036549	15.2472634697554	33.7248758181351	-0.572431093624581	17.5340332775267	11.5703042001538	Myb transcription factor, putative, expressed	MYB_related	NA
LOC_Os01g12000	-0.628236813194467	73.593972840596	44.7977264445844	1.65315553755284	0.974522925383516	2.9918102934004	expressed protein	NA	NA
LOC_Os01g14440	0.754038996039478	35.2659624855574	55.7547097067913	-1.1275927942958	6.08210465812631	2.73705093718407	WRKY1, expressed	WRKY	NA
LOC_Os01g16040	-0.527855800546795	17.2877016222982	11.3194328629987	0.427558236488254	24.4296247759299	32.1423724087166	mitochondrial carrier protein, putative, expressed	NA	NA
LOC_Os01g16450	-0.638033409584931	44.5560714455725	27.0108160178352	0.688926198853769	7.82437397217938	12.3625354408051	peroxidase precursor, putative, expressed	NA	NA
LOC_Os01g22660	-2.08270413042137	36.6769408890961	8.14744992957912	0.61200747407628	5.73415314617357	8.58232695096833	GDSL-like lipase/acylhydrolase, putative, expressed	NA	NA
LOC_Os01g22670	-2.76931165913968	136.90518547556	18.7617453530995	0.746248087683994	2.81000689333507	4.61971562629657	fruit bromelain precursor, putative, expressed	NA	NA
LOC_Os01g37690	0.696201317598708	23.2698889419241	35.3570512101416	-0.515624523035477	35.3641448320787	24.2628423050427	sodium/calcium exchanger protein, putative, expressed	NA	NA
LOC_Os01g41810	3.98226620203166	0.617547546587061	9.23482200321399	-0.502754578030638	10.5922666159461	7.35516213621252	cytochrome P450 72A1, putative, expressed	NA	NA
LOC_Os01g45140	-1.27421361113488	18.7531609546948	7.27126920436888	1.66332796618452	1.18426161381309	3.68012820310735	anthocyanin 3-O-beta-glucosyltransferase, putative, expressed	NA	NA
LOC_Os01g52110	0.559818170796625	22.6540501406281	31.5209255218357	-0.583439387866566	67.6579796545219	44.2312893537467	RING finger and CHY zinc finger domain-containing protein 1, putative, expressed	NA	NA
LOC_Os01g55240	-1.04864874285048	58.428211056202	26.7045468400962	0.962176951063875	10.0809608255524	19.2688519058778	gibberellin 2-beta-dioxygenase, putative, expressed	NA	NA
LOC_Os01g56200	0.952935084666553	30.813093294085	55.9269881414899	-0.335499715364004	43.1001514000902	33.4797723049752	BTBA2 - Bric-a-Brac,Tramtrack, Broad Complex BTB domain with Ankyrin repeat region, expressed	NA	NA
LOC_Os01g60280	1.15675942804834	69.5586799726059	145.365693096951	-0.373046237980452	28.791006061378	21.7847631705581	ATP binding protein, putative, expressed	NA	NA
LOC_Os01g60730	2.18348544970198	13.646408398856	58.0690799069118	-0.495272974071185	28.8287337105799	19.9959782917938	RING-H2 finger protein, putative, expressed	NA	NA
LOC_Os01g65830	-1.23394153755161	3.82360162271295	1.51939408530449	1.77199072769125	0.600315369371547	2.02454253015494	acyl-desaturase, chloroplast precursor, putative, expressed	NA	NA
LOC_Os01g66890	-1.30763282450813	13.2601403675249	5.07239488802048	0.579404530296033	14.2595753657876	20.8895906021353	BTBZ1 - Bric-a-Brac, Tramtrack, and Broad Complex BTB domain with TAZ zinc finger and Calmodulin-binding domains, expressed	NA	NA
LOC_Os01g69080	-0.637296336373239	17.3554809056744	10.5646336935027	0.406108394053563	59.479872892857	77.2153042021798	acyl-desaturase, chloroplast precursor, putative, expressed	NA	NA
LOC_Os01g70970	-1.63678000977625	9.50870752852557	2.87211318919461	1.93858545098458	4.96636004439376	18.653323145835	protein kinase, putative, expressed	NA	NA
LOC_Os02g02410	-0.738452629430849	359.954883846035	203.081330907814	0.447431026922686	170.308784032586	227.554858590721	DnaK family protein, putative, expressed	NA	NA
LOC_Os02g07110	1.30147626976594	3.99986432404703	9.28607337653638	-0.521242584068305	11.4899714535727	7.8247917030819	OsSAUR6 - Auxin-responsive SAUR gene family member, expressed	NA	NA
LOC_Os02g07820	-0.73510941130538	58.5249602242828	33.1403129494633	0.479279421306816	8.92633695947914	12.2130047794273	DUF581 domain containing protein, expressed	NA	NA
LOC_Os02g08230	1.33056530827427	2.72695704525899	6.38767702389845	-0.511558369466386	25.6435589740695	17.6011392660509	WAX2, putative, expressed	NA	NA
LOC_Os02g09850	0.648480023178093	19.8652464330385	29.4137333816569	-1.93948048250573	2.42288498480806	0.609870388407767	expressed protein	NA	NA
LOC_Os02g11760	0.752535339307057	6.91458524057055	10.9457577477769	-0.417948379197211	4.22490054082781	3.09467824898908	pleiotropic drug resistance protein, putative, expressed	NA	NA
LOC_Os02g13510	1.16631438437924	17.180610025262	36.2180853389982	-0.543749116311146	27.6131796066329	18.591156866935	receptor-like protein kinase 5 precursor, putative, expressed	NA	NA
LOC_Os02g16909	1.15147143903355	10.8150804317574	22.7093071023105	-0.862644657701445	12.298005143051	6.6274329039615	dynein light chain type 1 domain containing protein, expressed	NA	NA
LOC_Os02g32520	1.60784194239904	7.55875765002296	21.5859531000459	-0.81936694363754	16.0289014011704	8.902719313222	ERD1 protein, chloroplast precursor, putative, expressed	NA	NA
LOC_Os02g36940	1.47703611922019	16.4380818674925	42.9973977371257	-0.49394438365847	22.9527207525421	15.9992888047989	uncharacterized Cys-rich domain containing protein, putative, expressed	NA	NA
LOC_Os02g40240	1.49640674783056	2.30604235100964	6.19120352143855	-0.5583060013706	172.66938810836	114.876764176503	receptor kinase, putative, expressed	NA	NA
LOC_Os02g51410	0.731904994078122	30.0435662878825	46.8479752935713	-0.517333488000738	40.4180203223101	27.6569578060181	shikimate kinase, putative, expressed	NA	NA
LOC_Os03g02400	-1.08581449761792	16.4407277794087	7.31711524790996	0.772779537197968	4.94564143330172	8.26855725382365	plastocyanin-like domain containing protein, putative, expressed	NA	NA
LOC_Os03g03790	4.31808089425929	1.08098336306938	20.1045335208015	-0.655567310934286	8.20995887216867	5.0955343162045	AMP-binding domain containing protein, expressed	NA	NA
LOC_Os03g04110	0.562679645520075	34.3993152925055	47.7142509646247	-0.713174763943531	20.4096519975842	12.2097258399571	lysM domain-containing GPI-anchored protein precursor, putative, expressed	NA	NA
LOC_Os03g06520	1.03930262891297	4.19316824028745	8.13825932724295	-0.339164668680813	36.2482306217474	28.0927737090194	sulfate transporter, putative, expressed	NA	NA
LOC_Os03g10950	1.01683785034966	4.4351267974378	8.44961133640481	-0.892367053475248	2.50837232620123	1.32284374431559	protein phosphatase 2C, putative, expressed	NA	NA
LOC_Os03g12290	-1.44513311259891	121.839357910101	41.6806073306343	0.755892001210839	9.96359401595385	16.5203443643445	glutamine synthetase, catalytic domain containing protein, expressed	NA	NA
LOC_Os03g14610	0.542493652012136	25.9471478172769	35.6578083526575	-0.329052370411087	38.7865173232478	30.2288297653784	HVA22, putative, expressed	NA	NA
LOC_Os03g15690	-0.728004274770357	7.33698171261663	4.17680865181324	0.524170464870949	6.87306093512746	9.6775501312284	phosphate carrier protein, mitochondrial precursor, putative, expressed	NA	NA
LOC_Os03g16670	0.674565749781305	389.173463606598	582.114769859328	-0.655585150218378	79.6435506848548	49.5444059427263	haloacid dehalogenase-like hydrolase family protein, putative, expressed	NA	NA
LOC_Os03g20440	-1.03802475116443	16.6969591197041	7.67979607666366	1.11750442486379	1.17123652708168	2.49352606790869	VQ domain containing protein, putative, expressed	NA	NA
LOC_Os03g20900	-0.708767983473766	17.1064928642286	9.90112846073056	0.508334649066206	7.90174971446886	11.0040180211908	Myb transcription factor, putative, expressed	G2-like	NA
LOC_Os03g21000	0.593990895070235	21.4820212446892	30.5048384664515	-0.627606700108562	89.8829052921293	57.0925710258023	thioredoxin, putative, expressed	NA	NA
LOC_Os03g21480	-1.75363164050558	72.842973025815	20.4158604739273	0.966060446585965	1.38557658089044	2.65449559538795	HAD superfamily phosphatase, putative, expressed	NA	NA
LOC_Os03g22490	-0.740063520017443	54.2251820248234	30.5562216820123	0.627848633583551	32.3721930378864	49.1120075016527	heavy metal-associated domain containing protein, expressed	NA	NA
LOC_Os03g31510	0.626705997911766	31.1568457999249	45.2666732606042	-0.458874880173022	23.9428733495032	17.0863364769697	cysteine proteinase inhibitor 8 precursor, putative, expressed	NA	NA
LOC_Os03g49830	-0.982869573639176	16.9100879693495	8.07249471643661	2.30302605697296	5.15551327561604	25.008131405413	expressed protein	NA	NA
LOC_Os03g55776	1.90691134692987	1.73329034032457	6.25428977277037	-0.437029478869747	254.936378112467	184.499584982267	expressed protein	NA	NA
LOC_Os03g56160	1.3393761016888	6.31220069314554	14.9929045654405	-0.505322450653109	9.5624735488381	6.61809976430123	lectin-like receptor kinase 7, putative, expressed	NA	NA
LOC_Os03g56250	0.661644327407333	10.2163211298143	15.2051690269026	-0.70543196091511	12.1669957111167	7.31311764516651	LRR receptor-like protein kinase, putative, expressed	NA	NA
LOC_Os03g58800	-0.87397517805097	39.8581211186731	20.5591240960734	0.529865435277767	5.58020908313865	7.88392129154898	ATPase, putative, expressed	NA	NA
LOC_Os03g60620	-0.508618843229946	82.4827957716039	54.6220485186843	0.513161567976321	61.8791749826859	86.5663935328569	DnaK family protein, putative, expressed	NA	NA
LOC_Os03g61150	0.696148000576156	29.9419102796337	45.6363581298954	-1.28608273350457	7.84091729932203	3.1537392142618	expressed protein	NA	NA
LOC_Os04g01310	0.924495668670062	5.56448106558332	9.950238644617	-0.66257431286887	1.95615690701408	1.21126262762522	serine/threonine-protein kinase receptor precursor, putative, expressed	NA	NA
LOC_Os04g02050	0.761755773355346	7.41557842028541	11.8315354345503	-0.421040710075147	27.7450932252668	20.2786965849917	bifunctional 3-phosphoadenosine 5-phosphosulfate synthetase, putative, expressed	NA	NA
LOC_Os04g32920	-0.896974592593107	99.9869990238364	50.1968321991122	0.764992408771411	11.2615309364812	18.7580519846883	potassium transporter, putative, expressed	NA	NA
LOC_Os04g34230	-0.809911234642861	16.0480881913215	8.67132662942498	0.823949088545942	2.22753828873536	3.88512873607369	RING-H2 finger protein, putative, expressed	NA	NA
LOC_Os04g35240	-0.494140348826081	36.9220348589321	24.7372191961181	0.929394654832869	10.5122958612795	19.64887543999	CAMK_CAMK_like.25 - CAMK includes calcium/calmodulin depedent protein kinases, expressed	NA	NA
LOC_Os04g36670	-0.733034807593827	38.1941261737969	21.6356567499504	0.818761767758255	1.3098564007359	2.27660801901908	expressed protein	NA	NA
LOC_Os04g44300	0.682565040879837	13.3419729609414	20.0657661978167	-0.991329675236528	6.19010532150671	3.05940347171478	transposon protein, putative, unclassified, expressed	NA	NA
LOC_Os04g45860	-1.61849487462079	10.8884745992317	3.33031943512913	0.864546289404306	7.99183910992765	14.2408086798336	transposon protein, putative, unclassified, expressed	NA	NA
LOC_Os04g47360	0.733758993765478	9.48336116050131	14.8626404016215	-0.953267641124596	26.3375997331184	13.3384568649758	OsPOP9 - Putative Prolyl Oligopeptidase homologue, expressed	NA	NA
LOC_Os04g54630	1.30618311809521	3.62756373736011	8.46390935483999	-0.440367096138719	29.4334698385934	21.2438168691485	expressed protein	NA	NA
LOC_Os04g54900	-2.03305514620975	7.13860989006489	1.64449089531838	1.77821415162905	4.09286250504477	13.7382007750749	bHLH family protein, putative, expressed	bHLH	NA
LOC_Os05g04170	0.90082263449705	4.99946312458152	8.84106555712825	-0.690193646248425	173.131876595852	105.03102197634	AMP-binding enzyme, putative, expressed	NA	NA
LOC_Os05g27350	2.71449013975623	0.870311517212763	5.45255590819206	-0.821960217515307	3.59900163971915	1.99262507487877	expressed protein	NA	NA
LOC_Os05g32420	-2.44835622464339	10.2546236357643	1.76738282888293	1.90585582787091	0.506816976893575	1.87714104066641	expressed protein	NA	NA
LOC_Os05g36270	1.23932505634682	15.4470187665686	34.0949548602972	-0.825875426465278	13.4666650218368	7.45076008318623	fructose-1,6-bisphosphatase, putative, expressed	NA	NA
LOC_Os05g40270	0.570764894649595	50.9981098652084	71.2982578566167	-0.407060379490477	136.26996139375	100.671549531683	expressed protein	NA	NA
LOC_Os05g41220	0.806271890408276	10.1462814984609	16.76118988923	-0.777137845546618	10.2115371099958	5.85525583670338	SNF1-related protein kinase regulatory subunit beta-1, putative, expressed	NA	NA
LOC_Os05g50750	-0.623631551919485	119.167213728848	72.9956422423014	0.992132690185888	8.22966362625465	16.0335671643332	AAA family ATPase, putative, expressed	NA	NA
LOC_Os05g51240	-2.0068109473923	2.38466113713902	0.562081681525633	1.24041738628845	7.71935105295397	17.9197755082953	hydrolase, alpha/beta fold family domain containing protein, expressed	NA	NA
LOC_Os06g05740	-0.676375324219149	48.3177953442511	28.543264632437	0.484347510359027	20.9834978813892	28.7575797735136	expressed protein	NA	NA
LOC_Os06g06430	-1.58990258839126	10.1789345716287	3.18656441501246	1.14954696001401	2.05826632614372	4.46071050332665	expressed protein	NA	NA
LOC_Os06g06440	-1.051949494652	1.73015442349952	0.792263621329889	1.02980717559334	5.29006756407777	10.5759793411437	ABC transporter, ATP-binding protein, putative, expressed	NA	NA
LOC_Os06g08440	-0.785604478266871	7.746559608133	4.22530163076412	0.707955347610492	6.49449276815299	10.40989154163	two-component response regulator, putative, expressed	ARR-B	OsRR22 Rice type-B response regulators
LOC_Os06g12310	-1.62381602910751	50.0345290549327	15.2729176183494	0.385222690516122	50.3742242032172	64.5188674582056	aquaporin protein, putative, expressed	NA	NA
LOC_Os06g13560	1.34317289979835	21.2618029371123	50.573791471068	-0.735300203309719	10.1315106022206	5.93636255146943	SAM dependent carboxyl methyltransferase, putative, expressed	NA	NA
LOC_Os06g20150	-0.71276011068737	49.8913278320056	28.5605628064303	0.558915460423757	10.0014868858806	14.474648290849	peroxidase precursor, putative, expressed	NA	NA
LOC_Os06g39260	-0.568035653160434	47.327310085659	30.0405641376168	0.667403678448142	27.388905826439	42.606854314206	solute carrier family 35 member B1, putative, expressed	NA	NA
LOC_Os06g40650	0.804210608311223	64.7382519090882	105.601037440912	-0.556013254326908	43.8811860323325	29.2425880662035	copine-1, putative, expressed	NA	NA
LOC_Os06g49880	-0.685010398021439	52.6671078512109	30.8204289920611	0.749451956409519	5.25117667150981	8.63217634176636	B-box zinc finger family protein, putative, expressed	DBB	NA
LOC_Os06g50220	0.837830901823166	19.694531797572	33.0130916549626	-0.470215458130057	12.2765516987438	8.70793713065715	expressed protein	NA	NA
LOC_Os06g50390	0.803059403981222	10.6438650320837	17.441374334647	-0.871230901620545	4.39753092491119	2.36664462470998	eukaryotic aspartyl protease domain containing protein, expressed	NA	NA
LOC_Os07g06860	-1.62019981901549	9.10771065469616	2.77951413356768	2.61015486109552	0.426634717079151	2.57080291151135	gibberellin receptor GID1L2, putative, expressed	NA	NA
LOC_Os07g10840	0.785618221791337	8.12200926930239	13.0952585443708	-0.923266471299704	37.6126941657096	19.486582481292	uncharacterized glycosyltransferase, putative, expressed	NA	NA
LOC_Os07g29224	0.908446535473143	6.09810039779837	10.7536892076747	-0.413856208191693	6.48587201599404	4.76648496415664	expressed protein	NA	NA
LOC_Os07g48020	-1.05379006335436	25.7992279211332	11.6808827386532	0.668220740692022	25.4251242607273	39.638794700617	peroxidase precursor, putative, expressed	NA	NA
LOC_Os07g48830	3.11831803342205	12.7033320935049	103.378941632476	-1.02107709461519	7.08238290381161	3.42289255763254	glycosyl transferase 8 domain containing protein, putative, expressed	NA	NA
LOC_Os08g28240	-1.39243998634585	4.87810665881792	1.74822614349187	1.82043729101751	0.274923944395613	0.944700156251641	carotenoid cleavage dioxygenase, putative, expressed	NA	NA
LOC_Os08g31410	1.70016700540449	8.98624066762796	27.3943936258128	-0.507622145005745	34.4066589986914	23.7167613000663	sulfate transporter, putative, expressed	NA	NA
LOC_Os08g31980	0.816063715932001	7.521036625646	12.4894384723436	-1.411874641236	1.27671214169007	0.464961521011282	trehalose-6-phosphate synthase, putative, expressed	NA	NA
LOC_Os08g32960	-0.919992751165781	6.25111696294559	3.12454285291403	0.735339303124052	2.50349957882023	4.06879389944009	endonuclease/exonuclease/phosphatase family domain containing protein, expressed	NA	NA
LOC_Os08g33300	-4.70557315680774	2.31078784886533	0.0843353716080562	4.12884664611871	0.0181381682344018	0.343233695309271	cytochrome P450 72A1, putative, expressed	NA	NA
LOC_Os08g33750	0.577293929127089	46.7980391489526	65.9792592841164	-0.467479915809991	23.9122102821824	16.9530715472438	myb-like DNA-binding domain containing protein, expressed	G2-like	NA
LOC_Os08g35190	0.689595572729687	58.4236995989781	88.7566883969715	-0.568681195322926	56.7110834429863	37.5610597959435	auxin-repressed protein, putative, expressed	NA	NA
LOC_Os08g38710	0.861089634333318	22.0007799228164	37.3756439780803	-0.365118922339171	12.0171032774946	9.15447671127047	uncharacterized glycosyltransferase, putative, expressed	NA	NA
LOC_Os08g39860	-0.959111455472203	5.96498955258453	2.90632975380223	0.485057816079995	41.4538376347601	56.8362986675437	Os8bglu27 - beta-glucosidase homologue, similar to Os4bglu12 exoglucanase, expressed	NA	NA
LOC_Os08g42080	-0.973070246751657	9.52418428122516	4.60046810360378	3.23689057958163	2.07897651781291	19.2269592365037	ACR5, putative, expressed	NA	NA
LOC_Os09g11460	-0.991431144906687	27.2254372920373	12.9295486278227	0.613534231609182	27.2725262082909	40.9093983423843	AP2 domain containing protein, expressed	ERF	NA
LOC_Os09g29490	0.79758912853295	30.0674910889937	49.4288737038087	-0.638833129442668	10.4079184055211	6.53554269844255	peroxidase precursor, putative, expressed	NA	NA
LOC_Os09g29600	1.55153115459014	3.59403060055471	9.87937818480222	-0.991550270705612	3.65632726682063	1.79066582491749	OsWAK85 - OsWAK receptor-like cytoplasmic kinase OsWAK-RLCK, expressed	NA	NA
LOC_Os09g32730	1.28414851186871	6.47092436148339	14.6735610703209	-1.10302977626781	3.18878826256589	1.44286814702701	zinc finger, C3HC4 type domain containing protein, expressed	NA	NA
LOC_Os09g39740	0.628532452690056	7.77338286239838	11.3622237207823	-0.432947841617331	13.1543787985853	9.53225721050903	ACT domain containing protein, expressed	NA	NA
LOC_Os10g17260	-1.21874481038347	7.60343498927061	3.0776067291102	0.553342289642536	11.3339869651063	16.3037132668439	cytochrome P450, putative, expressed	NA	NA
LOC_Os10g34730	1.13147979931388	3.95045713820701	8.13358774958705	-0.805624407892097	4.43682549837699	2.48727711094556	GEM, putative, expressed	NA	NA
LOC_Os10g35070	1.28579746725449	7.86147438049075	18.0311045853671	-0.928418955428951	10.874708505461	5.5974423028372	alpha-galactosidase precursor, putative, expressed	NA	NA
LOC_Os10g35644	1.17816081506564	2.35313411716218	5.03060754913757	-0.46486264020209	11.162205615694	7.93935534577173	expressed protein	NA	NA
LOC_Os10g36650	-0.842491464993643	61.8123204040522	32.4661958996421	0.43071859293077	48.903941771081	64.5743193929591	actin, putative, expressed	NA	NA
LOC_Os10g37710	0.834084101847092	12.8986394982346	21.5373760639244	-1.11885998087678	3.00935981370469	1.36561628367276	hydrolase, alpha/beta fold family protein, putative, expressed	NA	NA
LOC_Os10g38470	0.852546562323176	4.11558013024101	7.00103033883061	-0.751180471395749	3.69612344376128	2.16469321059375	glutathione S-transferase, putative, expressed	NA	NA
LOC_Os10g38740	1.68885868731685	19.752611450877	59.6846543956339	-0.437453644399751	14.5188304605223	10.5067733934575	glutathione S-transferase, putative, expressed	NA	NA
LOC_Os11g02080	0.757698438396926	51.6798007561432	82.3206304931058	-0.829215427789791	4.48286826024515	2.46258257847512	expressed protein	NA	NA
LOC_Os11g02240	1.03348605270015	5.18093658975545	9.95078638623986	-0.710206972130338	4.53931436700053	2.72927625337915	CAMK_KIN1/SNF1/Nim1_like.4 - CAMK includes calcium/calmodulin depedent protein kinases, expressed	NA	NA
LOC_Os11g05470	-2.54443455966523	115.548510694266	18.714026469912	2.06808114714643	2.17116998459404	8.93500174814175	RCN1  Centroradialis-like1 homogous to TFL1  gene; contains Pfam profile PF01161: Phosphatidylethanolamine-binding protein, expressed	NA	NA
LOC_Os11g07980	2.3076713922917	0.62288101031966	2.89593440972279	-0.553916213393213	49.0668672281593	32.6930064137873	ion channel nompc, putative, expressed	NA	NA
LOC_Os11g25560	-0.674532837284016	20.2475827495762	11.9465815092427	0.467661788003991	15.9630637958489	21.6459009697028	BHLH transcription factor, putative, expressed	bHLH	NA
LOC_Os11g33120	0.857714868206179	34.0080431422478	57.788750560644	-0.835468859712506	12.5973892953068	6.93837483376983	respiratory burst oxidase, putative, expressed	NA	NA
LOC_Os12g03110	1.35848903277887	2.38911846135953	5.82954346542964	-0.617399586724756	10.7391560517521	6.83019116486232	ZF-HD protein dimerisation region containing protein, expressed	ZF-HD	NA
LOC_Os12g05420	1.09206759650184	67.4729513950174	135.063021154146	-0.531532106922726	16.8315060152119	11.4131297275486	calmodulin-binding protein, putative, expressed	NA	NA
LOC_Os12g25170	1.50194362228192	6.55324556374002	17.3647976446055	-0.769644792061728	9.74161412003387	5.57898260742217	NB-ARC domain containing disease resistance protein, putative, expressed	NA	NA
LOC_Os12g31860	1.14259195635611	22.7198677628353	47.032257542034	-0.880082572199941	7.43963839580362	3.96224700397501	ureide permease, putative, expressed	NA	NA
LOC_Os12g34890	-1.2105576377017	20.8233516106865	8.51513873764596	0.409395481799792	62.6257218309007	81.4149926201826	acyl carrier protein, putative, expressed	NA	NA
LOC_Os12g36910	1.42046293635647	16.5262792353869	41.4425744546655	-0.555795612482623	5.68621189479414	3.77307814929391	calmodulin binding protein, putative, expressed	NA	NA
LOC_Os12g41710	0.903360289585529	18.2655611069414	32.0051201242796	-0.867594852759297	7.62715879690999	4.10637241110764	Protein kinase domain containing protein, expressed	NA	NA
LOC_Os12g41810	-0.695487218089438	5.26057686066446	3.05665607428681	0.44966267426476	5.74554964479422	7.69723516776506	expressed protein	NA	NA
