SampleName	FastqReads	MappedReads	SingleMapping	MultiMapping	PercentMapping	PercentMultiMap
BA2h-R1	48026356	44471130	42747205	1723925	92.6	3.9
BA2h-R2	46376460	41006446	39402495	1603951	88.4	3.9
BA2h-R3	35988033	32694686	31244329	1450357	90.8	4.4
BA2h-S1	44108706	40990636	39207358	1783278	92.9	4.4
BA2h-S2	41126344	37112851	35446349	1666502	90.2	4.5
BA2h-S3	33418664	30714322	29431293	1283029	91.9	4.2
Control2h-R1	54298737	49921652	47894788	2026864	91.9	4.1
Control2h-R2	51605103	45782901	43901811	1881090	88.7	4.1
Control2h-R3	35645639	32485290	31182759	1302531	91.1	4
Control2h-S1	37643313	35271123	33697952	1573171	93.7	4.5
Control2h-S2	40073463	35966966	34584974	1381992	89.8	3.8
Control2h-S3	38543416	35437435	34092383	1345052	91.9	3.8
